<svg xmlns="http://www.w3.org/2000/svg" version="1.1" xmlns:xlink="http://www.w3.org/1999/xlink" xmlns:svgjs="http://svgjs.com/svgjs" width="1127.3647461" height="570.354126"><svg version="1.1" id="SvgjsSvg1000" xmlns="http://www.w3.org/2000/svg" xmlns:xlink="http://www.w3.org/1999/xlink" x="0px" y="0px" viewBox="0 0 1127.3647461 570.354126" style="enable-background:new 0 0 1127.3647461 570.354126;" xml:space="preserve">
<style type="text/css">
	.st0{fill:#DE7C1B;}
	.st1{fill:#0067B2;}
	.st2{fill:#00853C;}
</style>
<g>
	<path class="st0" d="M801.6552124,281.2825623c0.0043335-59.6752319-0.0294189-119.3505402,0.0737915-179.0256042
		c0.0076294-4.3787689-1.6262207-7.4368896-5.2237549-9.440918c-7.2546997-4.0412521-14.5281372-8.0662842-21.9534302-11.7785797
		c-7.1306763-3.5649872-10.4752197-8.5263138-10.0866089-16.9945526
		c0.7557983-16.4696198,0.4643555-32.9876823,0.5859375-49.4858437c0.0514526-6.9787617,2.8637695-10.328413,9.8027954-11.2237625
		c3.7911377-0.4891715,7.623291-0.9308288,11.4371948-0.933351C856.9556274,2.3532279,927.6270752,1.78631,998.2817993,2.6233354
		c37.4917603,0.444149,70.6329956,13.9010239,96.8120728,41.4248886
		c14.8679199,15.6316566,25.0087891,34.3935547,30.1401367,55.5289841
		c1.2393799,5.1052933,1.9968262,10.4671478,2.0025635,15.712059c0.1188965,109.3506088,0.2075195,218.7015381,0.019165,328.0519104
		c-0.0421143,24.4129944-4.8637695,48.0047607-16.7718506,69.5973511
		c-10.8509521,19.6759033-26.697998,34.0829468-47.3516846,43.3175659
		c-19.5633545,8.7471924-40.0407715,12.9005737-61.324646,13.1508789
		c-22.6417236,0.2662964-45.2883301,0.0717163-67.9325562,0.1530762
		c-27.3087158,0.0982666-54.6172485,0.4020996-81.9256592,0.3807373
		c-25.3170166-0.0197754-50.6351318-0.2654419-75.9492188-0.6461792c-3.3850098-0.0509033-7.3444214-0.649353-9.9447632-2.5168457
		c-2.298645-1.6507568-4.2776489-5.4050903-4.326416-8.2660522c-0.3492432-20.4906616-0.1167603-40.9906006-0.1988525-61.4870911
		c-0.017395-4.3353577,1.6976929-7.1737366,5.5079956-9.2068481c9.2459106-4.9334106,18.3756104-10.0843811,27.5653076-15.1236572
		c4.9042969-2.6894226,7.4202881-6.3371887,7.3911743-12.3894958c-0.2640381-54.8392029-0.2659302-109.679657-0.3427734-164.5197449
		C801.6450195,290.9507751,801.6508789,286.1166687,801.6552124,281.2825623z M896.1394653,279.3306274
		c-0.0136719,0-0.0274048,0-0.0410767,0c0,15.8309937-0.0013428,31.6620178,0.0001831,47.4930115
		c0.0044556,45.3265076-0.000061,90.6530457,0.0221558,135.9795532
		c0.0057373,11.7718811,0.9578857,12.8351746,12.7967529,12.8978882
		c16.8204346,0.0890198,33.6473999,0.1908569,50.4619141-0.1680298c15.4967651-0.330719,30.9572144-1.9171143,45.7840576-6.5871887
		c10.7887573-3.3982544,21.107666-8.2910461,23.7556152-21.0502625c1.0065918-4.8500977,1.3928223-9.9101868,1.3973389-14.8751526
		c0.0909424-99.3186035,0.0864258-198.6373291,0.0906982-297.9560547c0.0001221-3.8309937-0.2078857-7.6638565-0.1396484-11.4926376
		c0.1726074-9.6967316-4.6820068-17.5927734-10.689209-24.0776215
		c-11.5224609-12.4389801-26.4082642-19.093689-43.449646-19.5589218
		c-21.1429443-0.5772171-42.3053589-0.6701584-63.4578857-0.5869751
		c-14.4642944,0.0568542-16.6566162,4.85112-16.6203613,16.5098114
		C896.2407837,157.0150757,896.1394653,218.1730042,896.1394653,279.3306274z"></path>
	<path class="st1" d="M384.8177795,282.7873535c0.0067749-82.5100708,0.0066528-165.0201721,0.0069275-247.5302429
		c0-7.165514-0.1719666-14.3363457,0.0468445-21.4952049c0.2844543-9.304882,5.2384033-13.8008966,14.6376953-13.7616549
		c7.165802,0.0299119,14.3318787,0.0169382,21.4978027,0.0165223c90.8270874-0.005262,181.6541443-0.0166101,272.4812317-0.0117183
		c11.4729614,0.0006182,15.3596191,3.8530703,15.3832397,15.2825146
		c0.0327148,15.8350925,0.0112305,31.6704044-0.0354614,47.5054932c-0.0222778,7.5712624-3.0050049,11.2657127-10.607666,12.6251183
		c-3.5736694,0.6390076-7.2755127,0.7721176-10.9196167,0.7750168
		c-66.1621704,0.0526428-132.3243408,0.0496674-198.4865112,0.0649567
		c-1.4983215,0.0003433-2.9986572,0.0396576-4.4946289,0.1222153c-4.5949402,0.253624-6.9229126,2.7133408-7.1281433,7.3012619
		c-0.3425598,7.6562576-1.0225525,15.309227-1.0520325,22.965538c-0.1046753,27.1688843,0.0054932,54.3385925,0.0349731,81.5079956
		c0.0005493,0.5000153-0.0006714,1.0003815,0.0164185,1.5c0.3000793,8.7751312,1.0636597,9.6372528,9.934906,9.6529999
		c46.8297424,0.0832825,93.6597595,0.0761719,140.4894104,0.1876526c3.9577637,0.0093994,8.029541,0.1848907,11.8475952,1.111145
		c8.7701416,2.127655,12.6082153,6.5210114,12.8375244,15.4308624c0.3599854,13.9874573,0.3804932,27.9967041,0.0430908,41.9846344
		c-0.241333,10.009491-4.7294922,14.3151245-14.8366699,15.2787781c-4.1383667,0.3945618-8.3156738,0.51828-12.475708,0.5259399
		c-45.6624756,0.0843201-91.3256226-0.0042114-136.9868774,0.2595825
		c-11.3811951,0.0657349-10.4368591-0.3873596-10.631073,10.5478516
		c-0.4585571,25.8287048-0.3059998,51.6689148-0.3247986,77.5045166c-0.0241699,33.1705627,0.0205688,66.341156,0.046875,99.5117493
		c0.0084839,10.6989746,1.2116089,12.1872864,12.0991211,12.2286987
		c40.4963989,0.1541443,80.9935913,0.1175232,121.4904785,0.1294861
		c36.8307495,0.0108032,73.6615601-0.0413208,110.4921265,0.0455933c3.1085815,0.0073547,6.3064575,0.5381775,9.3019409,1.3912659
		c4.6826172,1.3334045,7.8409424,4.3927917,7.9838867,9.5812073c0.1925659,6.9946594,0.2288818,13.9946899,0.2487183,20.9926453
		c0.0505371,17.8353882,0.0616455,35.6709595,0.0737915,53.5064087c0.0048218,7.0326538-2.2112427,9.6057739-9.1955566,10.5117188
		c-2.1386108,0.2774658-4.3201904,0.3087158-6.4820557,0.3088989
		c-104.4918823,0.0113525-208.9838257,0.0122681-313.475708-0.0169067
		c-3.8269958-0.0010376-7.6823425-0.0775146-11.4747925-0.5328979c-7.3592529-0.8835449-10.9617004-4.6355591-11.7186279-12.0116577
		c-0.3904419-3.8050537-0.6466064-7.6430054-0.6481323-11.4661865
		C384.8029175,458.4752502,384.8110352,370.6312866,384.8177795,282.7873535z"></path>
	<path class="st2" d="M314.8818359,149.8715057c-10.4995728,0-20.999115,0.0020142-31.4986877-0.0006714
		c-7.7459717-0.0019836-10.5745239-2.5940247-11.0131531-10.2687225
		c-1.6410522-28.7171021-16.0500793-47.7256927-43.4607849-56.4224472
		c-33.428421-10.6060028-64.5978851-5.4606857-92.8578644,15.163002
		c-19.5952835,14.3003159-21.4474792,35.1960907-13.34832,56.5251007
		c5.739418,15.1146698,16.376503,26.9390259,29.2354507,36.0170746
		c25.5600586,18.0446472,51.6525421,35.3619537,77.9199829,52.3695831
		c26.4494629,17.1255188,52.6132202,34.5644531,75.787384,56.0608215
		c21.8503723,20.2684021,40.4552917,42.881073,50.4716187,71.5258179
		c7.8691711,22.5044556,10.8383789,45.5583801,8.2154236,69.3427734
		c-4.8623962,44.0910034-28.4335632,75.8998413-65.0848389,98.8850708
		c-43.3334656,27.1758423-91.1712799,33.4669189-141.0966797,29.4260864
		c-28.2015533-2.2825317-55.069397-9.4456787-80.2437134-22.4111328
		c-27.980423-14.4105835-51.5977554-33.5686035-65.8690872-62.4945679
		c-7.6416616-15.4886475-11.1569538-31.997345-11.8501272-49.1539612
		c-0.2421114-5.9924316-0.0889977-11.999939-0.1861902-17.9994202c-0.0801544-4.9476318,1.9747858-8.3570862,6.9098487-9.5597839
		c2.565403-0.6252136,5.2183886-1.2366638,7.8350658-1.2507629c20.4997826-0.1105042,41.0003815-0.0997009,61.5006599-0.0737305
		c10.630249,0.0134583,14.2907562,3.3770142,14.2622833,13.9978027
		c-0.0476608,17.7857971,5.394104,32.6461792,21.0024567,42.6800537
		c12.1142349,7.7875366,25.3843918,12.6637878,39.5114517,14.6348877
		c24.7213135,3.4490967,49.5268402,3.8963013,74.0785828-1.4428101
		c14.9138947-3.2432251,28.9261322-8.7606506,37.5278931-22.4535217c9.7361145-15.4985046,9.5816345-31.551239,0.5492249-47.331604
		c-9.5329285-16.6547241-23.621582-29.2074585-38.4807129-40.847229
		c-29.5637665-23.1584167-62.4843445-41.2157288-93.9992523-61.4162292
		c-40.2725449-25.8139343-72.6457672-59.1251678-94.9700623-101.7992554
		c-12.8465042-24.5567627-15.6140251-50.6147461-12.3173428-77.6879196
		c2.4589558-20.1935577,7.5791893-39.5555267,18.1626797-57.1400375
		C53.970417,46.1508102,71.5821457,31.3946915,93.1000977,21.0192699
		c24.2379761-11.6869526,50.065033-17.0543823,76.673996-18.4481087
		c16.5957642-0.8692535,33.3714447-1.3687046,49.8939667,0.0191934
		c44.8979797,3.7714393,83.5675964,21.0125389,113.2685242,55.9667587
		c16.4969788,19.4148483,25.1793213,41.681488,24.5905151,67.3493195
		c-0.1108398,4.8316498,0.1027527,9.6715698-0.0418091,14.5014191c-0.197876,6.6090851-2.918396,9.3146973-9.6030884,9.3816681
		c-10.999115,0.1102295-22.0001221,0.0298767-33.0003357,0.0298767
		C314.8818665,149.8367615,314.8818359,149.8541412,314.8818359,149.8715057z"></path>
</g>
</svg><style>@media (prefers-color-scheme: light) { :root { filter: none; } }
</style></svg>