<svg xmlns="http://www.w3.org/2000/svg" width="326" height="88" viewBox="0 0 326 88">
  <path fill="#7ea72f" d="M147.46 33.49l-2.66-1.6-2.4-1.45a1.1 1.1 0 01-.5-.62c-.27-.78-.57-1.54-.85-2.31-.21-.57-.41-1.14-.63-1.7l-.86-2.3-.88-2.44-.29-.76-.97-2.59c-.54-1.45-1.09-2.9-1.62-4.36-.22-.6-.4-1.2-.61-1.8-.03-.07-.1-.13-.23-.18-.02.14-.06.29-.06.43l.02 12.74v1.32l-.86-.53-2.34-1.4c-.23-.14-.36-.29-.3-.6.04-.26-.02-.55-.02-.82V8.09c0-.38.03-.75.04-1.13v-.83c.02 0 .1.01.17.05l3.03 1.85c.74.45 1.49.9 2.22 1.36.13.08.24.25.3.4l1.7 4.57c.44 1.16.9 2.31 1.33 3.47.48 1.3.94 2.6 1.43 3.89.28.75.6 1.49.9 2.23.2.5.37 1 .55 1.5.11.3.22.6.31.9.07.23.1.47.16.7.03.1.09.25.16.26.18.04.19-.13.2-.26v-.39-12.34-.63l1.37.8 1.96 1.22c.17.1.22.22.22.42v17.36z"/>
  <path fill="#7ea72f" d="M156.95 30.25c-.03.62 0 1.32-.12 2-.17.95-.39 1.9-.7 2.8a8.01 8.01 0 01-2.31 3.36 7.48 7.48 0 01-3.05 1.66c-1.2.33-2.44.42-3.7.32a13.56 13.56 0 01-3-.56 25.51 25.51 0 01-8.11-4.35 40.48 40.48 0 01-10.83-13.42c-.5-1.04-1.01-2.08-1.43-3.15-.34-.85-.57-1.75-.85-2.63l-.25-.87c-.3-1.15-.51-2.31-.59-3.5-.06-.96-.12-1.93-.07-2.9.04-.72.26-1.43.39-2.16.2-1.14.66-2.18 1.27-3.14a7.47 7.47 0 013.73-3.05c.44-.17.9-.33 1.35-.45.28-.07.58-.03.86-.09.95-.21 1.89-.1 2.84 0 2.16.22 4.14.97 6.05 1.95a26 26 0 015.6 3.83c.74.66 1.53 1.28 2.23 2a43.12 43.12 0 017.05 9.56c.5.94.92 1.92 1.37 2.89.22.47.43.94.6 1.43.33.95.67 1.9.91 2.88.28 1.14.49 2.31.66 3.48.1.67.07 1.36.1 2.1zm-8.99 7.94a6.3 6.3 0 006.27-4.57c.34-1.03.42-2.12.47-3.2.02-.39-.03-.78-.06-1.17-.06-.64-.07-1.3-.18-1.93-.18-.93-.37-1.87-.66-2.77a34.6 34.6 0 00-1.36-3.73 41.5 41.5 0 00-2-3.83 34.07 34.07 0 00-3.62-5.08c-.95-1.1-1.98-2.14-3.02-3.18a29.98 29.98 0 00-6.46-4.63c-.86-.45-1.76-.85-2.68-1.17-1.02-.35-2.08-.6-3.17-.66-1.8-.1-3.44.27-4.85 1.45a6.58 6.58 0 00-2.1 3.55 15.4 15.4 0 00-.2 5.38c.21 1.38.58 2.74.98 4.08.28.96.69 1.89 1.09 2.81a38.19 38.19 0 009.87 13.24c1.03.86 2.12 1.65 3.24 2.4.86.57 1.77 1.08 2.7 1.52.96.44 1.93.85 2.96 1.08.92.2 1.83.42 2.78.4zM140.28 44.47c2.59 4.16 5.33 8.3 8.29 12.36-.22.32-.6.47-.92.8a77.5 77.5 0 01-2.1-2.22l-1.01-1.12-.96-1.13-1-1.15c-.32-.38-.61-.8-.97-1.16-.34-.34-.5-.85-.95-1.11-.04.08-.07.1-.07.13l-.02 5.68c0 1.82.07 3.65-.04 5.47-.1 1.76-.03 3.53-.06 5.29-.04 1.72-.06 3.44-.08 5.16l-.06 5.3c-.01 1.75.06 3.51-.07 5.26-.14 1.78-.02 3.55-.1 5.32 0 .22-.04.43-.06.65h-1.39c-.04-.39-.1-.77-.1-1.15-.02-1.53 0-3.07-.01-4.6l-.08-6.17-.08-5.55-.04-5.82c-.02-1.89.03-3.77-.07-5.65-.1-1.92-.02-3.85-.07-5.77l-.09-3.16c0-.1-.03-.2-.06-.4-1.1 1.45-2.33 2.67-3.44 4a62 62 0 01-3.55 3.89l-.79-.6c-.16-.11-.15-.24-.04-.4 1.33-1.87 2.67-3.75 3.98-5.63.96-1.4 1.9-2.8 2.83-4.21.45-.69.89-1.39 1.31-2.09.12-.2.25-.24.46-.23.43.02.86 0 1.41 0z"/>
  <path d="M173.57 15.97h2.87l3.33 6.83h.07v-6.81h1.75v8.88h-1.94l-.48.02c-.2-.01-.33-.09-.42-.3-.23-.54-.5-1.06-.75-1.6l-1.75-3.67c-.2-.42-.35-.85-.54-1.26-.06-.11-.2-.19-.31-.3.1 2.38.01 4.7.05 7-.3.13-1.46.15-1.88.05v-8.84zM264.13 17.69c-.23.15-.25.3-.22.5.03.15.07.3.07.46v5.78c0 .1.01.2-.02.3-.02.07-.1.16-.16.16-.54-.01-1.07-.04-1.6-.06-.03 0-.05-.03-.08-.05V16c.06 0 .16-.04.25-.04h2.35c.23 0 .35.06.44.3.25.56.53 1.1.8 1.66l1.68 3.49c.2.41.38.83.57 1.24.02.03.07.05.14.1.19-.46-.03-.9.01-1.32.04-.45.03-.9.03-1.35V18.7v-1.35-1.36l.36-.02h1.39v8.92h-.97c-.4 0-.82-.06-1.22 0-.41.07-.56-.13-.71-.44-.47-1-.96-2-1.44-2.99-.5-1.04-.99-2.09-1.47-3.14-.09-.18-.13-.38-.2-.62zM318.43 15.98l.4-.02h3.04c.68.01 1.34.18 1.96.46a3.3 3.3 0 011.85 2.19c.2.66.38 1.33.3 2.04-.1 1.06-.27 2.1-1.04 2.94a3.5 3.5 0 01-2.4 1.2c-1.26.09-2.52.05-3.78.06-.38 0-.38 0-.35-.38.02-.19.02-.38.02-.56v-7.26-.67zm1.9 7.37c.48 0 .97.02 1.46 0 .8-.06 1.45-.42 1.77-1.19.46-1.1.44-2.24.05-3.36-.19-.56-.6-.91-1.12-1.13a4.6 4.6 0 00-2.16-.21v5.89zM234.04 24.9V16l.3-.03c1.1 0 2.2-.04 3.3 0 1 .05 1.95.36 2.69 1.04.63.58 1 1.36 1.12 2.23.07.54.1 1.09.08 1.63-.05 1.25-.4 2.4-1.45 3.18a3.8 3.8 0 01-2.29.78c-1.22.01-2.45.05-3.75.08zm1.94-1.55h1.38c.87 0 1.7-.7 1.92-1.43a5.16 5.16 0 00-.1-3.24c-.38-.9-1.2-1.14-2.07-1.25-.37-.04-.74 0-1.1.01l-.03.28v5.63zM225.2 20.61c.78.06 1.12.44 1.22 1.23.09.77.21 1.53.35 2.3.04.24.17.47.27.73h-2.07c-.03-.11-.1-.26-.11-.4l-.27-2.1-.02-.17c-.19-.76-.32-.86-1.1-.86h-1.65v3.5h-1.97V16c.09-.01.2-.04.3-.04 1.28 0 2.55-.02 3.82 0 .83.02 1.6.22 2.21.83.54.54.64 1.2.55 1.92-.1.74-.53 1.21-1.18 1.53-.14.07-.26.19-.4.28l.06.1zm-3.4-3.14v2.09c0 .24.13.28.34.27.37-.01.75-.02 1.12 0 .91.01 1.4-.49 1.43-1.39 0-.4-.2-.67-.49-.8-.76-.35-1.57-.21-2.4-.17zM197.37 20.26c0 1.11-.15 2.05-.64 2.86a3.63 3.63 0 01-2.25 1.75c-.8.2-1.57.26-2.36.12a3.63 3.63 0 01-3.03-2.6 5.69 5.69 0 01-.32-2.16c.07-.97.2-1.93.77-2.75.57-.8 1.3-1.37 2.3-1.52.4-.06.8-.17 1.2-.16.73.01 1.46.1 2.13.44a3.59 3.59 0 011.85 2.16c.21.66.36 1.33.34 1.86zm-2.05.2c-.04-.4-.06-.8-.12-1.2-.15-.87-.53-1.56-1.38-1.95-.84-.38-1.96.06-2.4.68a3.8 3.8 0 00-.57 2c-.05.64 0 1.28.16 1.92.19.8.64 1.38 1.4 1.65.25.1.55.02.82.05.85.08 1.57-.7 1.77-1.28a5 5 0 00.32-1.87zM212.83 20.43c.01 1.19-.3 2.25-1 3.2a2.95 2.95 0 01-1.83 1.2c-.38.07-.76.2-1.14.22-.47.02-.95-.02-1.42-.09a3.54 3.54 0 01-2.3-1.38 2.98 2.98 0 01-.72-1.67 5 5 0 01-.05-2.82c.1-.47.23-.9.45-1.34a3.33 3.33 0 012.1-1.74 5.4 5.4 0 012.65-.1c.8.17 1.48.47 2.03 1.03.5.52.85 1.15.98 1.87.1.54.17 1.08.25 1.62zm-4.33 3.22c.26-.05.54-.05.8-.14.79-.28 1.1-.95 1.29-1.7.23-.95.2-1.91-.02-2.86-.16-.7-.5-1.3-1.24-1.6-1.39-.53-2.57.2-2.9 1.57a7.41 7.41 0 00-.01 2.96c.18 1.1.97 1.73 2.08 1.77zM294.16 17.48v2.02l.34.03h3.04c.36 0 .39.03.38.4l-.01.96-.05.08h-3.68v2.37h4.12v1.53h-5.74c-.38 0-.38-.02-.37-.42.02-.93.02-1.86.02-2.78v-5V16h6.02v1.21c0 .16-.1.23-.24.23h-3.43c-.12 0-.23.03-.4.05zM254.75 23.33v1.55h-6.06v-8.86c.3-.1 5.62-.1 5.96.03v1.14c0 .15-.07.25-.23.25l-.6-.01h-2.87c-.33 0-.36.02-.36.34v1.52c0 .17.02.3.26.28l2.87-.04h.58V21h-3.71v2.35h4.16zM280.15 24.82l-.44-1.2-.86-2.33-.66-1.77c-.37-1.02-.72-2.05-1.1-3.07-.05-.14-.15-.27-.25-.44.36-.11.72-.04 1.06-.05h1.08c.26.77.53 1.53.78 2.3.26.77.46 1.55.76 2.29s.43 1.55.84 2.26l1.01-3.06 1.16-3.42c.03-.1.04-.22.06-.35h1.96l-.41 1.17-.9 2.42c-.24.61-.48 1.23-.7 1.85l-.78 2.18-.37 1c-.09.22-.24.3-.48.28-.43-.02-.87 0-1.3-.01-.16 0-.31-.03-.46-.05zM29.88 15.99c1.08 2.54 2.19 5.08 3.31 7.68l2.11-4.73.93-2.1c.13-.3.23-.58.34-.86h1.26v1.92l-.03 6.34v.13c-.03.16.17.38-.04.47-.18.08-.4.05-.6.03-.06-.01-.13-.17-.14-.26-.02-.23 0-.47 0-.7v-5.95c0-.18.04-.35.05-.52l.02-.61c-.15.1-.25.14-.28.2-.1.26-.16.52-.25.78l-.4.94-.64 1.55-.77 1.83c-.32.75-.64 1.5-.94 2.26-.2.51-.32.59-.84.46-.16-.03-.25-.1-.32-.29-.27-.73-.6-1.45-.9-2.18l-.83-2.07c-.13-.31-.3-.61-.41-.94-.27-.8-.78-1.5-.91-2.36 0-.02-.04-.04-.06-.07-.19 0-.19.14-.19.26v7.71l-.82-.1V16h1.35zM307.69 23.34c1.33.03 2.58-.03 3.84.05v1.44c-.12.01-.23.04-.34.04l-4.87-.01c-.57 0-.57 0-.57-.59v-6.6-1.68h1.94v7.35zM72.8 15.99h.93l1.19 1.92c.28.47.58.93.87 1.39.74 1.16 1.5 2.32 2.23 3.5.12.18.2.4.3.6.03.07.1.12.17.17.05-.07.16-.14.16-.22 0-.18-.06-.37-.06-.55V16h.84v8.52c0 .34-.03.34-.36.37-.53.06-.8-.18-1.07-.63-.82-1.4-1.7-2.76-2.55-4.13l-1.4-2.21c-.1-.17-.17-.35-.26-.54-.23.06-.18.24-.18.39v7.13l-.81-.07v-8.84zM3.98 21.07v-.67H7v3.71c0 .4.01.41-.4.53-.67.2-1.36.32-2.07.38-.45.03-.88.04-1.33-.02a3.2 3.2 0 01-2.1-1.12 4.72 4.72 0 01-.89-1.85 5.52 5.52 0 01-.2-1.7c.05-1.35.37-2.64 1.4-3.6.9-.84 2-1.1 3.23-.85.57.11 1.05.38 1.5.7.53.37.72.94.8 1.63-.28 0-.52.02-.76-.01-.08-.01-.18-.13-.2-.22-.21-.76-.75-1.12-1.47-1.36-.78-.25-1.47-.04-2.12.32-.3.16-.55.46-.75.76a4.56 4.56 0 00-.74 2.58c0 .68.05 1.34.28 2a2.85 2.85 0 002.05 1.91c.9.26 1.76.1 2.63-.15.28-.08.39-.23.38-.53-.02-.68 0-1.36 0-2.04-.01-.38-.05-.4-.44-.4H3.98zM105.87 24.13v.69c-.1.02-.18.06-.28.06h-4.99c-.26.01-.28-.12-.28-.32l.03-7.38v-1.2h5.36v.36l-.03.36-.26.03h-3.82c-.43 0-.42 0-.43.44 0 .82 0 1.65-.02 2.47 0 .24.08.32.3.32H105.5l.03.22c0 .46 0 .46-.45.46h-3.56l-.34.02v.42c-.01.93-.02 1.85-.05 2.78 0 .17.07.24.21.26.12.02.24.01.35.01h4.18zM46.1 24.8v-8.81h5.33v.22c.02.52.02.52-.51.51l-3.83-.01c-.04 0-.08.02-.14.05-.01.1-.03.21-.03.32v2.44c0 .43 0 .44.43.44h3.89v.67l-1.42.01h-2.88v3.48h4.65v.73h-1.31l-3.91.03c-.1 0-.18-.06-.27-.08zM60.32 16.72v3.21c.5.06.99.02 1.47.03h2.94l-.07.67h-4.33v3.5h4.65l.02.38c-.01.4-.02.4-.44.36-.2-.02-.4-.02-.6-.02l-4.26.03c-.04 0-.08-.03-.16-.07V16h5.28l-.08.72h-4.42zM20.37 19.96v.68h-4.28c-.02.14-.04.24-.04.33v2.74c0 .4 0 .42.4.42h4.26c0 .26.07.5-.01.67-.12.24-.37.03-.56.03-1.55.03-3.1.04-4.64.05-.06 0-.11-.02-.2-.04v-8.85h5.25l-.07.73H16.1c0 .18-.03.32-.03.46v2.35c-.01.4 0 .43.4.43h3.91zM90.32 16.74l-.12 8.09c-.05.02-.08.06-.12.06-.72 0-.63.04-.63-.58v-7.08c0-.16-.02-.31-.04-.5h-2.8l-.1-.68c.3-.11 5.78-.15 6.56-.05v.74h-2.75z"/>
</svg>
