[
    {
        "dutch_code": 0,
        "label": "Onbekend"
    },
    {
        "dutch_code": 5001,
        "label": "Canada"
    },
    {
        "dutch_code": 5002,
        "label": "Frankrijk"
    },
    {
        "dutch_code": 5003,
        "label": "Zwitserland"
    },
    {
        "dutch_code": 5004,
        "label": "Rhodesië"
    },
    {
        "dutch_code": 5005,
        "label": "Malawi"
    },
    {
        "dutch_code": 5006,
        "label": "Cuba"
    },
    {
        "dutch_code": 5007,
        "label": "Suriname"
    },
    {
        "dutch_code": 5008,
        "label": "Tunesië"
    },
    {
        "dutch_code": 5009,
        "label": "Oostenrijk"
    },
    {
        "dutch_code": 5010,
        "label": "België"
    },
    {
        "dutch_code": 5011,
        "label": "Botswana"
    },
    {
        "dutch_code": 5012,
        "label": "Iran"
    },
    {
        "dutch_code": 5013,
        "label": "Nieuw-Zeeland"
    },
    {
        "dutch_code": 5014,
        "label": "Zuid-Afrika"
    },
    {
        "dutch_code": 5015,
        "label": "Denemarken"
    },
    {
        "dutch_code": 5016,
        "label": "Noord-Jemen"
    },
    {
        "dutch_code": 5017,
        "label": "Hongarije"
    },
    {
        "dutch_code": 5018,
        "label": "Saoedi-Arabië"
    },
    {
        "dutch_code": 5019,
        "label": "Liberia"
    },
    {
        "dutch_code": 5020,
        "label": "Ethiopië"
    },
    {
        "dutch_code": 5021,
        "label": "Chili"
    },
    {
        "dutch_code": 5022,
        "label": "Marokko"
    },
    {
        "dutch_code": 5023,
        "label": "Togo"
    },
    {
        "dutch_code": 5024,
        "label": "Ghana"
    },
    {
        "dutch_code": 5025,
        "label": "Laos"
    },
    {
        "dutch_code": 5026,
        "label": "Angola"
    },
    {
        "dutch_code": 5027,
        "label": "Filipijnen"
    },
    {
        "dutch_code": 5028,
        "label": "Zambia"
    },
    {
        "dutch_code": 5029,
        "label": "Mali"
    },
    {
        "dutch_code": 5030,
        "label": "Ivoorkust"
    },
    {
        "dutch_code": 5031,
        "label": "Burma"
    },
    {
        "dutch_code": 5032,
        "label": "Monaco"
    },
    {
        "dutch_code": 5033,
        "label": "Colombia"
    },
    {
        "dutch_code": 5034,
        "label": "Albanië"
    },
    {
        "dutch_code": 5035,
        "label": "Kameroen"
    },
    {
        "dutch_code": 5036,
        "label": "Zuid-Vietnam"
    },
    {
        "dutch_code": 5037,
        "label": "Singapore"
    },
    {
        "dutch_code": 5038,
        "label": "Paraguay"
    },
    {
        "dutch_code": 5039,
        "label": "Zweden"
    },
    {
        "dutch_code": 5040,
        "label": "Cyprus"
    },
    {
        "dutch_code": 5041,
        "label": "Australisch Nieuw-Guinea"
    },
    {
        "dutch_code": 5042,
        "label": "Brunei"
    },
    {
        "dutch_code": 5043,
        "label": "Irak"
    },
    {
        "dutch_code": 5044,
        "label": "Mauritius"
    },
    {
        "dutch_code": 5045,
        "label": "Vaticaanstad"
    },
    {
        "dutch_code": 5046,
        "label": "Kashmir"
    },
    {
        "dutch_code": 5047,
        "label": "Myanmar"
    },
    {
        "dutch_code": 5048,
        "label": "Jemen"
    },
    {
        "dutch_code": 5049,
        "label": "Slovenië"
    },
    {
        "dutch_code": 5050,
        "label": "Zaïre"
    },
    {
        "dutch_code": 5051,
        "label": "Kroatië"
    },
    {
        "dutch_code": 5052,
        "label": "Taiwan"
    },
    {
        "dutch_code": 5053,
        "label": "Rusland"
    },
    {
        "dutch_code": 5054,
        "label": "Armenië"
    },
    {
        "dutch_code": 5055,
        "label": "Ascension"
    },
    {
        "dutch_code": 5056,
        "label": "Azoren"
    },
    {
        "dutch_code": 5057,
        "label": "Bahrein"
    },
    {
        "dutch_code": 5058,
        "label": "Bhutan"
    },
    {
        "dutch_code": 5059,
        "label": "Britse Antillen"
    },
    {
        "dutch_code": 5060,
        "label": "Comoren"
    },
    {
        "dutch_code": 5061,
        "label": "Falklandeilanden"
    },
    {
        "dutch_code": 5062,
        "label": "Frans-Guyana"
    },
    {
        "dutch_code": 5063,
        "label": "Frans-Somaliland"
    },
    {
        "dutch_code": 5064,
        "label": "Gilbert- en Ellice-eilanden"
    },
    {
        "dutch_code": 5065,
        "label": "Groenland"
    },
    {
        "dutch_code": 5066,
        "label": "Guadeloupe"
    },
    {
        "dutch_code": 5067,
        "label": "Kaapverdische Eilanden"
    },
    {
        "dutch_code": 5068,
        "label": "Macau"
    },
    {
        "dutch_code": 5069,
        "label": "Martinique"
    },
    {
        "dutch_code": 5070,
        "label": "Mozambique"
    },
    {
        "dutch_code": 5071,
        "label": "Pitcairneilanden"
    },
    {
        "dutch_code": 5072,
        "label": "Guinee-Bissau"
    },
    {
        "dutch_code": 5073,
        "label": "Réunion"
    },
    {
        "dutch_code": 5074,
        "label": "Saint Pierre en Miquelon"
    },
    {
        "dutch_code": 5075,
        "label": "Seychellen en Amiranten"
    },
    {
        "dutch_code": 5076,
        "label": "Tonga"
    },
    {
        "dutch_code": 5077,
        "label": "Wallis en Futuna"
    },
    {
        "dutch_code": 5078,
        "label": "Zuidwest-Afrika"
    },
    {
        "dutch_code": 5079,
        "label": "Frans-Indië"
    },
    {
        "dutch_code": 5080,
        "label": "Johnston"
    },
    {
        "dutch_code": 5081,
        "label": "Kedah"
    },
    {
        "dutch_code": 5082,
        "label": "Kelantan"
    },
    {
        "dutch_code": 5083,
        "label": "Malakka"
    },
    {
        "dutch_code": 5084,
        "label": "Mayotte"
    },
    {
        "dutch_code": 5085,
        "label": "Negri Sembilan"
    },
    {
        "dutch_code": 5086,
        "label": "Pahang"
    },
    {
        "dutch_code": 5087,
        "label": "Perak"
    },
    {
        "dutch_code": 5088,
        "label": "Perlis"
    },
    {
        "dutch_code": 5089,
        "label": "Portugees-Indië"
    },
    {
        "dutch_code": 5090,
        "label": "Selangor"
    },
    {
        "dutch_code": 5091,
        "label": "Sikkim"
    },
    {
        "dutch_code": 5092,
        "label": "Saint Vincent en de Grenadines"
    },
    {
        "dutch_code": 5093,
        "label": "Spitsbergen"
    },
    {
        "dutch_code": 5094,
        "label": "Trengganu"
    },
    {
        "dutch_code": 5095,
        "label": "Aruba"
    },
    {
        "dutch_code": 5096,
        "label": "Burkina Faso"
    },
    {
        "dutch_code": 5097,
        "label": "Azerbeidzjan"
    },
    {
        "dutch_code": 5098,
        "label": "Belarus"
    },
    {
        "dutch_code": 5099,
        "label": "Kazachstan"
    },
    {
        "dutch_code": 5100,
        "label": "Macedonië"
    },
    {
        "dutch_code": 5101,
        "label": "Timor Leste"
    },
    {
        "dutch_code": 5102,
        "label": "Servië en Montenegro"
    },
    {
        "dutch_code": 5103,
        "label": "Servië"
    },
    {
        "dutch_code": 5104,
        "label": "Montenegro"
    },
    {
        "dutch_code": 5105,
        "label": "Kosovo"
    },
    {
        "dutch_code": 5106,
        "label": "Bonaire"
    },
    {
        "dutch_code": 5107,
        "label": "Curaçao"
    },
    {
        "dutch_code": 5108,
        "label": "Saba"
    },
    {
        "dutch_code": 5109,
        "label": "Sint Eustatius"
    },
    {
        "dutch_code": 5110,
        "label": "Sint Maarten"
    },
    {
        "dutch_code": 5111,
        "label": "Zuid-Soedan"
    },
    {
        "dutch_code": 5112,
        "label": "Gazastrook en Westelijke Jordaanoever"
    },
    {
        "dutch_code": 5113,
        "label": "Republiek Noord-Macedonië"
    },
    {
        "dutch_code": 6000,
        "label": "Moldavië"
    },
    {
        "dutch_code": 6001,
        "label": "Burundi"
    },
    {
        "dutch_code": 6002,
        "label": "Finland"
    },
    {
        "dutch_code": 6003,
        "label": "Griekenland"
    },
    {
        "dutch_code": 6004,
        "label": "Guatemala"
    },
    {
        "dutch_code": 6005,
        "label": "Nigeria"
    },
    {
        "dutch_code": 6006,
        "label": "Libië"
    },
    {
        "dutch_code": 6007,
        "label": "Ierland"
    },
    {
        "dutch_code": 6008,
        "label": "Brazilië"
    },
    {
        "dutch_code": 6009,
        "label": "Rwanda"
    },
    {
        "dutch_code": 6010,
        "label": "Venezuela"
    },
    {
        "dutch_code": 6011,
        "label": "IJsland"
    },
    {
        "dutch_code": 6012,
        "label": "Liechtenstein"
    },
    {
        "dutch_code": 6013,
        "label": "Somalië"
    },
    {
        "dutch_code": 6014,
        "label": "Verenigde Staten van Amerika"
    },
    {
        "dutch_code": 6015,
        "label": "Bolivia"
    },
    {
        "dutch_code": 6016,
        "label": "Australië"
    },
    {
        "dutch_code": 6017,
        "label": "Jamaica"
    },
    {
        "dutch_code": 6018,
        "label": "Luxemburg"
    },
    {
        "dutch_code": 6019,
        "label": "Tsjaad"
    },
    {
        "dutch_code": 6020,
        "label": "Mauritanië"
    },
    {
        "dutch_code": 6021,
        "label": "Kirgizië"
    },
    {
        "dutch_code": 6022,
        "label": "China"
    },
    {
        "dutch_code": 6023,
        "label": "Afghanistan"
    },
    {
        "dutch_code": 6024,
        "label": "Indonesië"
    },
    {
        "dutch_code": 6025,
        "label": "Guyana"
    },
    {
        "dutch_code": 6026,
        "label": "Noord-Vietnam"
    },
    {
        "dutch_code": 6027,
        "label": "Noorwegen"
    },
    {
        "dutch_code": 6028,
        "label": "San Marino"
    },
    {
        "dutch_code": 6029,
        "label": "Duitsland"
    },
    {
        "dutch_code": 6030,
        "label": "Nederland"
    },
    {
        "dutch_code": 6031,
        "label": "Cambodja"
    },
    {
        "dutch_code": 6032,
        "label": "Fiji"
    },
    {
        "dutch_code": 6033,
        "label": "Bahama's"
    },
    {
        "dutch_code": 6034,
        "label": "Israël"
    },
    {
        "dutch_code": 6035,
        "label": "Nepal"
    },
    {
        "dutch_code": 6036,
        "label": "Zuid-Korea"
    },
    {
        "dutch_code": 6037,
        "label": "Spanje"
    },
    {
        "dutch_code": 6038,
        "label": "Oekraïne"
    },
    {
        "dutch_code": 6039,
        "label": "Groot-Brittannië"
    },
    {
        "dutch_code": 6040,
        "label": "Niger"
    },
    {
        "dutch_code": 6041,
        "label": "Haïti"
    },
    {
        "dutch_code": 6042,
        "label": "Jordanië"
    },
    {
        "dutch_code": 6043,
        "label": "Turkije"
    },
    {
        "dutch_code": 6044,
        "label": "Trinidad en Tobago"
    },
    {
        "dutch_code": 6045,
        "label": "Joegoslavië"
    },
    {
        "dutch_code": 6046,
        "label": "Opper-Volta"
    },
    {
        "dutch_code": 6047,
        "label": "Algerije"
    },
    {
        "dutch_code": 6048,
        "label": "Gabon"
    },
    {
        "dutch_code": 6049,
        "label": "Noord-Korea"
    },
    {
        "dutch_code": 6050,
        "label": "Oezbekistan"
    },
    {
        "dutch_code": 6051,
        "label": "Sierra Leone"
    },
    {
        "dutch_code": 6052,
        "label": "Brits-Honduras"
    },
    {
        "dutch_code": 6053,
        "label": "Canarische Eilanden"
    },
    {
        "dutch_code": 6054,
        "label": "Frans-Polynesië"
    },
    {
        "dutch_code": 6055,
        "label": "Gibraltar"
    },
    {
        "dutch_code": 6056,
        "label": "Portugees-Timor"
    },
    {
        "dutch_code": 6057,
        "label": "Tadzjikistan"
    },
    {
        "dutch_code": 6058,
        "label": "Britse Salomonseilanden"
    },
    {
        "dutch_code": 6059,
        "label": "São Tomé en Principe"
    },
    {
        "dutch_code": 6060,
        "label": "Sint-Helena"
    },
    {
        "dutch_code": 6061,
        "label": "Tristan Da Cunha"
    },
    {
        "dutch_code": 6062,
        "label": "West-Samoa"
    },
    {
        "dutch_code": 6063,
        "label": "Turkmenistan"
    },
    {
        "dutch_code": 6064,
        "label": "Georgië"
    },
    {
        "dutch_code": 6065,
        "label": "Bosnië-Herzegovina"
    },
    {
        "dutch_code": 6066,
        "label": "Tsjechië"
    },
    {
        "dutch_code": 6067,
        "label": "Slowakije"
    },
    {
        "dutch_code": 6068,
        "label": "Federale Republiek Joegoslavië"
    },
    {
        "dutch_code": 6069,
        "label": "Democratische Republiek Congo"
    },
    {
        "dutch_code": 7001,
        "label": "Uganda"
    },
    {
        "dutch_code": 7002,
        "label": "Kenya"
    },
    {
        "dutch_code": 7003,
        "label": "Malta"
    },
    {
        "dutch_code": 7004,
        "label": "Barbados"
    },
    {
        "dutch_code": 7005,
        "label": "Andorra"
    },
    {
        "dutch_code": 7006,
        "label": "Mexico"
    },
    {
        "dutch_code": 7007,
        "label": "Costa Rica"
    },
    {
        "dutch_code": 7008,
        "label": "Gambia"
    },
    {
        "dutch_code": 7009,
        "label": "Syrië"
    },
    {
        "dutch_code": 7011,
        "label": "Nederlandse Antillen"
    },
    {
        "dutch_code": 7012,
        "label": "Zuid-Jemen"
    },
    {
        "dutch_code": 7014,
        "label": "Egypte"
    },
    {
        "dutch_code": 7015,
        "label": "Argentinië"
    },
    {
        "dutch_code": 7016,
        "label": "Lesotho"
    },
    {
        "dutch_code": 7017,
        "label": "Honduras"
    },
    {
        "dutch_code": 7018,
        "label": "Nicaragua"
    },
    {
        "dutch_code": 7020,
        "label": "Pakistan"
    },
    {
        "dutch_code": 7021,
        "label": "Senegal"
    },
    {
        "dutch_code": 7023,
        "label": "Dahomey"
    },
    {
        "dutch_code": 7024,
        "label": "Bulgarije"
    },
    {
        "dutch_code": 7026,
        "label": "Maleisië"
    },
    {
        "dutch_code": 7027,
        "label": "Dominicaanse Republiek"
    },
    {
        "dutch_code": 7028,
        "label": "Polen"
    },
    {
        "dutch_code": 7029,
        "label": "Rusland (oud)"
    },
    {
        "dutch_code": 7030,
        "label": "Britse Maagdeneilanden"
    },
    {
        "dutch_code": 7031,
        "label": "Tanzania"
    },
    {
        "dutch_code": 7032,
        "label": "El Salvador"
    },
    {
        "dutch_code": 7033,
        "label": "Sri Lanka"
    },
    {
        "dutch_code": 7034,
        "label": "Soedan"
    },
    {
        "dutch_code": 7035,
        "label": "Japan"
    },
    {
        "dutch_code": 7036,
        "label": "Hongkong"
    },
    {
        "dutch_code": 7037,
        "label": "Panama"
    },
    {
        "dutch_code": 7038,
        "label": "Uruguay"
    },
    {
        "dutch_code": 7039,
        "label": "Ecuador"
    },
    {
        "dutch_code": 7040,
        "label": "Guinee"
    },
    {
        "dutch_code": 7041,
        "label": "Maldiven"
    },
    {
        "dutch_code": 7042,
        "label": "Thailand"
    },
    {
        "dutch_code": 7043,
        "label": "Libanon"
    },
    {
        "dutch_code": 7044,
        "label": "Italië"
    },
    {
        "dutch_code": 7045,
        "label": "Koeweit"
    },
    {
        "dutch_code": 7046,
        "label": "India"
    },
    {
        "dutch_code": 7047,
        "label": "Roemenië"
    },
    {
        "dutch_code": 7048,
        "label": "Tsjecho-Slowakije"
    },
    {
        "dutch_code": 7049,
        "label": "Peru"
    },
    {
        "dutch_code": 7050,
        "label": "Portugal"
    },
    {
        "dutch_code": 7051,
        "label": "Oman"
    },
    {
        "dutch_code": 7052,
        "label": "Mongolië"
    },
    {
        "dutch_code": 7053,
        "label": "Samoa"
    },
    {
        "dutch_code": 7054,
        "label": "Verenigde Arabische Emiraten"
    },
    {
        "dutch_code": 7055,
        "label": "Tibet"
    },
    {
        "dutch_code": 7057,
        "label": "Nauru"
    },
    {
        "dutch_code": 7058,
        "label": "Nederlands Nieuw-Guinea"
    },
    {
        "dutch_code": 7059,
        "label": "Tanganyika"
    },
    {
        "dutch_code": 7060,
        "label": "Palestina"
    },
    {
        "dutch_code": 7062,
        "label": "Brits West-Indië"
    },
    {
        "dutch_code": 7063,
        "label": "Portugees-Afrika"
    },
    {
        "dutch_code": 7064,
        "label": "Letland"
    },
    {
        "dutch_code": 7065,
        "label": "Estland"
    },
    {
        "dutch_code": 7066,
        "label": "Litouwen"
    },
    {
        "dutch_code": 7067,
        "label": "Brits-Afrika"
    },
    {
        "dutch_code": 7068,
        "label": "Belgisch-Congo"
    },
    {
        "dutch_code": 7070,
        "label": "Brits-Indië"
    },
    {
        "dutch_code": 7071,
        "label": "Noord-Rhodesië"
    },
    {
        "dutch_code": 7072,
        "label": "Zuid-Rhodesië"
    },
    {
        "dutch_code": 7073,
        "label": "Saarland"
    },
    {
        "dutch_code": 7074,
        "label": "Frans Indochina"
    },
    {
        "dutch_code": 7075,
        "label": "Brits West-Borneo"
    },
    {
        "dutch_code": 7076,
        "label": "Goudkust"
    },
    {
        "dutch_code": 7077,
        "label": "Ras al-Khaimah"
    },
    {
        "dutch_code": 7079,
        "label": "Frans-Congo"
    },
    {
        "dutch_code": 7080,
        "label": "Siam"
    },
    {
        "dutch_code": 7082,
        "label": "Brits Oost-Afrika"
    },
    {
        "dutch_code": 7083,
        "label": "Brits Noord-Borneo"
    },
    {
        "dutch_code": 7084,
        "label": "Bangladesh"
    },
    {
        "dutch_code": 7085,
        "label": "Duitse Democratische Republiek"
    },
    {
        "dutch_code": 7087,
        "label": "Madeira-eilanden"
    },
    {
        "dutch_code": 7088,
        "label": "Amerikaanse Maagdeneilanden"
    },
    {
        "dutch_code": 7089,
        "label": "Australische Salomonseilanden"
    },
    {
        "dutch_code": 7091,
        "label": "Spaanse Sahara"
    },
    {
        "dutch_code": 7092,
        "label": "Caymaneilanden"
    },
    {
        "dutch_code": 7093,
        "label": "Caicoseilanden"
    },
    {
        "dutch_code": 7094,
        "label": "Turkseilanden"
    },
    {
        "dutch_code": 7095,
        "label": "Brits Antarctisch Territorium"
    },
    {
        "dutch_code": 7096,
        "label": "Brits Indische Oceaanterritorium"
    },
    {
        "dutch_code": 7097,
        "label": "Cookeilanden"
    },
    {
        "dutch_code": 7098,
        "label": "Tokelau"
    },
    {
        "dutch_code": 7099,
        "label": "Nieuw-Caledonië"
    },
    {
        "dutch_code": 8000,
        "label": "Hawaii-eilanden"
    },
    {
        "dutch_code": 8001,
        "label": "Guam"
    },
    {
        "dutch_code": 8002,
        "label": "Amerikaans-Samoa"
    },
    {
        "dutch_code": 8003,
        "label": "Midway"
    },
    {
        "dutch_code": 8004,
        "label": "Riukiu-eilanden"
    },
    {
        "dutch_code": 8005,
        "label": "Wake"
    },
    {
        "dutch_code": 8006,
        "label": "Pacific-eilanden"
    },
    {
        "dutch_code": 8008,
        "label": "Grenada"
    },
    {
        "dutch_code": 8009,
        "label": "Marianen"
    },
    {
        "dutch_code": 8010,
        "label": "Cabinda"
    },
    {
        "dutch_code": 8011,
        "label": "Canton en Enderbury"
    },
    {
        "dutch_code": 8012,
        "label": "Christmaseiland"
    },
    {
        "dutch_code": 8013,
        "label": "Cocoseilanden"
    },
    {
        "dutch_code": 8014,
        "label": "Faeröer"
    },
    {
        "dutch_code": 8015,
        "label": "Montserrat"
    },
    {
        "dutch_code": 8016,
        "label": "Norfolk"
    },
    {
        "dutch_code": 8017,
        "label": "Belize"
    },
    {
        "dutch_code": 8018,
        "label": "Tasmanië"
    },
    {
        "dutch_code": 8019,
        "label": "Turks-en Caicoseilanden"
    },
    {
        "dutch_code": 8020,
        "label": "Puerto Rico"
    },
    {
        "dutch_code": 8021,
        "label": "Papoea-Nieuw-Guinea"
    },
    {
        "dutch_code": 8022,
        "label": "Salomonseilanden"
    },
    {
        "dutch_code": 8023,
        "label": "Benin"
    },
    {
        "dutch_code": 8024,
        "label": "Vietnam"
    },
    {
        "dutch_code": 8025,
        "label": "Kaapverdië"
    },
    {
        "dutch_code": 8026,
        "label": "Seychellen"
    },
    {
        "dutch_code": 8027,
        "label": "Kiribati"
    },
    {
        "dutch_code": 8028,
        "label": "Tuvalu"
    },
    {
        "dutch_code": 8029,
        "label": "Saint Lucia"
    },
    {
        "dutch_code": 8030,
        "label": "Dominica"
    },
    {
        "dutch_code": 8031,
        "label": "Zimbabwe"
    },
    {
        "dutch_code": 8032,
        "label": "Dubai"
    },
    {
        "dutch_code": 8033,
        "label": "Nieuwe Hebriden"
    },
    {
        "dutch_code": 8034,
        "label": "Kanaaleilanden"
    },
    {
        "dutch_code": 8035,
        "label": "Man"
    },
    {
        "dutch_code": 8036,
        "label": "Anguilla"
    },
    {
        "dutch_code": 8037,
        "label": "Saint Kitts en Nevis"
    },
    {
        "dutch_code": 8038,
        "label": "Antigua"
    },
    {
        "dutch_code": 8039,
        "label": "Saint Vincent"
    },
    {
        "dutch_code": 8040,
        "label": "Gilberteilanden"
    },
    {
        "dutch_code": 8041,
        "label": "Panamakanaalzone"
    },
    {
        "dutch_code": 8042,
        "label": "Saint Kitts, Nevis en Anguilla"
    },
    {
        "dutch_code": 8043,
        "label": "Belau"
    },
    {
        "dutch_code": 8044,
        "label": "Palau"
    },
    {
        "dutch_code": 8045,
        "label": "Antigua en Barbuda"
    },
    {
        "dutch_code": 9000,
        "label": "Newfoundland"
    },
    {
        "dutch_code": 9001,
        "label": "Nyasaland"
    },
    {
        "dutch_code": 9003,
        "label": "Eritrea"
    },
    {
        "dutch_code": 9005,
        "label": "Ifni"
    },
    {
        "dutch_code": 9006,
        "label": "Brits-Kameroen"
    },
    {
        "dutch_code": 9007,
        "label": "Keizer Wilhelmsland"
    },
    {
        "dutch_code": 9008,
        "label": "Congo"
    },
    {
        "dutch_code": 9009,
        "label": "Congo-Kinshasa"
    },
    {
        "dutch_code": 9010,
        "label": "Madagaskar"
    },
    {
        "dutch_code": 9013,
        "label": "Congo-Brazzaville"
    },
    {
        "dutch_code": 9014,
        "label": "Leewardeilanden"
    },
    {
        "dutch_code": 9015,
        "label": "Windwardeilanden"
    },
    {
        "dutch_code": 9016,
        "label": "Frans Territorium voor Afars en Issa's"
    },
    {
        "dutch_code": 9017,
        "label": "Phoenixeilanden"
    },
    {
        "dutch_code": 9020,
        "label": "Portugees-Guinee"
    },
    {
        "dutch_code": 9022,
        "label": "Duits Zuidwest-Afrika"
    },
    {
        "dutch_code": 9023,
        "label": "Namibië"
    },
    {
        "dutch_code": 9027,
        "label": "Brits-Somaliland"
    },
    {
        "dutch_code": 9028,
        "label": "Italiaans-Somaliland"
    },
    {
        "dutch_code": 9030,
        "label": "Nederlands-Indië"
    },
    {
        "dutch_code": 9031,
        "label": "Brits-Guyana"
    },
    {
        "dutch_code": 9036,
        "label": "Swaziland"
    },
    {
        "dutch_code": 9037,
        "label": "Qatar"
    },
    {
        "dutch_code": 9038,
        "label": "Eswatini"
    },
    {
        "dutch_code": 9041,
        "label": "Aden"
    },
    {
        "dutch_code": 9042,
        "label": "Zuid-Arabische Federatie"
    },
    {
        "dutch_code": 9043,
        "label": "Equatoriaal-Guinea"
    },
    {
        "dutch_code": 9044,
        "label": "Spaans-Guinee"
    },
    {
        "dutch_code": 9047,
        "label": "Verenigde Arabische Republiek"
    },
    {
        "dutch_code": 9048,
        "label": "Bermuda"
    },
    {
        "dutch_code": 9049,
        "label": "Sovjet-Unie"
    },
    {
        "dutch_code": 9050,
        "label": "Duits Oost-Afrika"
    },
    {
        "dutch_code": 9051,
        "label": "Zanzibar"
    },
    {
        "dutch_code": 9052,
        "label": "Ceylon"
    },
    {
        "dutch_code": 9053,
        "label": "Muscat en Oman"
    },
    {
        "dutch_code": 9054,
        "label": "Trucial Oman"
    },
    {
        "dutch_code": 9055,
        "label": "Indochina"
    },
    {
        "dutch_code": 9056,
        "label": "Marshalleilanden"
    },
    {
        "dutch_code": 9057,
        "label": "Sarawak"
    },
    {
        "dutch_code": 9058,
        "label": "Brits-Borneo"
    },
    {
        "dutch_code": 9060,
        "label": "Sabah"
    },
    {
        "dutch_code": 9061,
        "label": "Abu Dhabi"
    },
    {
        "dutch_code": 9062,
        "label": "Ajman"
    },
    {
        "dutch_code": 9063,
        "label": "Basutoland"
    },
    {
        "dutch_code": 9064,
        "label": "Bechuanaland"
    },
    {
        "dutch_code": 9065,
        "label": "Fujairah"
    },
    {
        "dutch_code": 9066,
        "label": "Frans-Kameroen"
    },
    {
        "dutch_code": 9067,
        "label": "Johore"
    },
    {
        "dutch_code": 9068,
        "label": "Korea"
    },
    {
        "dutch_code": 9069,
        "label": "Labuan"
    },
    {
        "dutch_code": 9070,
        "label": "Umm Al-Qaiwain"
    },
    {
        "dutch_code": 9071,
        "label": "Oostenrijk-Hongarije"
    },
    {
        "dutch_code": 9072,
        "label": "Portugees Oost-Afrika"
    },
    {
        "dutch_code": 9073,
        "label": "Portugees West-Afrika"
    },
    {
        "dutch_code": 9074,
        "label": "Sharjah"
    },
    {
        "dutch_code": 9075,
        "label": "Straits Settlements"
    },
    {
        "dutch_code": 9076,
        "label": "Abessinië"
    },
    {
        "dutch_code": 9077,
        "label": "Frans West-Afrika"
    },
    {
        "dutch_code": 9078,
        "label": "Frans Equatoriaal-Afrika"
    },
    {
        "dutch_code": 9081,
        "label": "Urundi"
    },
    {
        "dutch_code": 9082,
        "label": "Ruanda-Urundi"
    },
    {
        "dutch_code": 9084,
        "label": "Goa"
    },
    {
        "dutch_code": 9085,
        "label": "Dantzig"
    },
    {
        "dutch_code": 9086,
        "label": "Centraal-Afrikaanse Republiek"
    },
    {
        "dutch_code": 9087,
        "label": "Djibouti"
    },
    {
        "dutch_code": 9088,
        "label": "Transjordanië"
    },
    {
        "dutch_code": 9089,
        "label": "Bondsrepubliek Duitsland"
    },
    {
        "dutch_code": 9090,
        "label": "Vanuatu"
    },
    {
        "dutch_code": 9091,
        "label": "Niue"
    },
    {
        "dutch_code": 9092,
        "label": "Spaans Noord-Afrika"
    },
    {
        "dutch_code": 9093,
        "label": "Westelijke Sahara"
    },
    {
        "dutch_code": 9094,
        "label": "Micronesia"
    },
    {
        "dutch_code": 9095,
        "label": "Svalbardeilanden"
    },
    {
        "dutch_code": 9999,
        "label": "Internationaal gebied"
    }
]