<?xml version="1.0" encoding="utf-8"?>
<!-- Generator: Adobe Illustrator 16.0.0, SVG Export Plug-In . SVG Version: 6.00 Build 0)  -->
<!DOCTYPE svg PUBLIC "-//W3C//DTD SVG 1.1//EN" "http://www.w3.org/Graphics/SVG/1.1/DTD/svg11.dtd">
<svg version="1.1" xmlns="http://www.w3.org/2000/svg" xmlns:xlink="http://www.w3.org/1999/xlink" x="0px" y="0px"
	 width="952.453px" height="70.497px" viewBox="0 0 952.453 70.497" enable-background="new 0 0 952.453 70.497"
	 xml:space="preserve">
<g id="Layer_8">
	<circle fill="#00A5E8" cx="289.886" cy="35.38" r="21.917"/>
	<path fill="#FFFFFF" d="M303.639,29c-0.919,0.4-1.903,0.67-2.935,0.789c1.056-0.627,1.87-1.623,2.257-2.812
		c-0.989,0.577-2.084,0.999-3.248,1.221c-0.926-0.994-2.248-1.622-3.719-1.63c-2.815-0.014-5.113,2.26-5.127,5.076
		c0,0.4,0.04,0.791,0.128,1.165c-4.242-0.234-7.993-2.287-10.493-5.386c-0.441,0.753-0.699,1.629-0.701,2.563
		c-0.01,1.769,0.883,3.335,2.244,4.259c-0.833-0.03-1.621-0.264-2.306-0.651c0,0.022,0,0.044,0,0.063
		c-0.015,2.473,1.735,4.545,4.067,5.026c-0.43,0.114-0.881,0.172-1.348,0.172c-0.326-0.002-0.647-0.035-0.959-0.098
		c0.64,2.031,2.517,3.518,4.752,3.57c-1.756,1.358-3.961,2.162-6.35,2.151c-0.413-0.003-0.819-0.027-1.219-0.077
		c2.252,1.458,4.93,2.316,7.812,2.331c9.389,0.049,14.561-7.702,14.594-14.445c0.002-0.219-0.005-0.441-0.012-0.66
		C302.079,30.915,302.95,30.019,303.639,29z"/>
	<polyline fill="none" stroke="#FFFFFF" stroke-miterlimit="10" points="418.004,1792.024 427.958,1801.978 417.661,1812.275 	"/>
	<polyline fill="none" stroke="#CC0000" stroke-width="0.6" stroke-miterlimit="10" points="115.926,2572.074 121.898,2578.046 
		115.72,2584.224 	"/>
	<circle fill="#FFFFFF" cx="154.455" cy="2790.319" r="26.828"/>
	<g>
		<rect x="149.879" y="2773.882" fill="#FBC85F" width="9" height="24"/>
		<circle fill="#FBC85F" cx="154.849" cy="2806.06" r="3.935"/>
	</g>
	<circle fill="#F8B100" cx="140.455" cy="2931.319" r="26.828"/>
	<g>
		<rect x="135.879" y="2914.882" fill="#FFFFFF" width="9" height="24"/>
		<circle fill="#FFFFFF" cx="140.849" cy="2947.06" r="3.935"/>
	</g>
	<circle fill="#F8B100" cx="149.455" cy="3003.319" r="12.161"/>
	<g>
		<rect x="147.879" y="2995.882" fill="#FFFFFF" width="4" height="11"/>
		<circle fill="#FFFFFF" cx="149.634" cy="3010.455" r="1.784"/>
	</g>
	<polygon fill="#F8B100" points="161.879,3148.882 131.879,3148.882 131.879,3108.882 147.897,3108.882 161.879,3123.741 	"/>
	<polygon fill="#FBC85F" points="161.831,3123.882 147.879,3123.882 147.879,3108.65 	"/>
	<polygon fill="#F8B100" points="162.879,3208.882 145.879,3208.882 145.879,3186.882 155.436,3186.882 162.879,3194.868 	"/>
	<polygon fill="#FBC85F" points="163.332,3194.882 155.879,3194.882 155.879,3186.316 	"/>
	<polyline fill="none" stroke="#999999" stroke-width="1.0198" stroke-miterlimit="10" points="402.695,5209.024 413.046,5218.978 
		402.338,5229.275 	"/>
	<circle fill="#0071BC" cx="350.318" cy="35.38" r="21.917"/>
	<g>
		<path fill="#FFFFFF" d="M358.079,42.259l0.584-4.791h-5.197l0.012-4.219c0-1.349,0.033-1.771,1.648-1.771h3.242v-4.792h-4.914
			c-3.691,0-5.965,2.953-5.965,5.788v4.994h-4.834v4.791h4.834v14.783c-0.191,0.149,0.84,0.254,1.898,0.26
			c0.998,0.004,1.973-0.08,4.145-0.203v-14.84H358.079z"/>
	</g>
	<polyline fill="none" stroke="#FFFFFF" stroke-miterlimit="10" points="418.004,1792.024 427.958,1801.978 417.661,1812.275 	"/>
	<polyline fill="none" stroke="#CC0000" stroke-width="0.6" stroke-miterlimit="10" points="115.926,2572.074 121.898,2578.046 
		115.72,2584.224 	"/>
	<circle fill="#FFFFFF" cx="154.455" cy="2790.319" r="26.828"/>
	<g>
		<rect x="149.879" y="2773.882" fill="#FBC85F" width="9" height="24"/>
		<circle fill="#FBC85F" cx="154.849" cy="2806.06" r="3.935"/>
	</g>
	<circle fill="#F8B100" cx="140.455" cy="2931.319" r="26.828"/>
	<g>
		<rect x="135.879" y="2914.882" fill="#FFFFFF" width="9" height="24"/>
		<circle fill="#FFFFFF" cx="140.849" cy="2947.06" r="3.935"/>
	</g>
	<circle fill="#F8B100" cx="149.455" cy="3003.319" r="12.161"/>
	<g>
		<rect x="147.879" y="2995.882" fill="#FFFFFF" width="4" height="11"/>
		<circle fill="#FFFFFF" cx="149.634" cy="3010.455" r="1.784"/>
	</g>
	<polygon fill="#F8B100" points="161.879,3148.882 131.879,3148.882 131.879,3108.882 147.897,3108.882 161.879,3123.741 	"/>
	<polygon fill="#FBC85F" points="161.831,3123.882 147.879,3123.882 147.879,3108.65 	"/>
	<polygon fill="#F8B100" points="162.879,3208.882 145.879,3208.882 145.879,3186.882 155.436,3186.882 162.879,3194.868 	"/>
	<polygon fill="#FBC85F" points="163.332,3194.882 155.879,3194.882 155.879,3186.316 	"/>
	<polyline fill="none" stroke="#999999" stroke-width="1.0198" stroke-miterlimit="10" points="402.695,5209.024 413.046,5218.978 
		402.338,5229.275 	"/>
	
		<ellipse fill="none" stroke="#FFFFFF" stroke-width="4.9705" stroke-miterlimit="10" cx="208.805" cy="32.364" rx="24.016" ry="23.899"/>
	<g>
		<path fill="#008046" d="M221.879,41.303c0,0.32-0.259,0.58-0.58,0.58h-24.841c-0.32,0-0.58-0.259-0.58-0.58V24.462
			c0-0.32,0.259-0.58,0.58-0.58H221.3c0.32,0,0.58,0.259,0.58,0.58V41.303z"/>
		<path fill="none" stroke="#FFFFFF" stroke-width="3" stroke-miterlimit="10" d="M222.379,41.803c0,0.32-0.259,0.58-0.58,0.58
			h-24.841c-0.32,0-0.58-0.259-0.58-0.58V24.962c0-0.32,0.259-0.58,0.58-0.58H221.8c0.32,0,0.58,0.259,0.58,0.58V41.803z"/>
	</g>
	<g>
		<path fill="none" stroke="#FFFFFF" stroke-width="3.3679" stroke-miterlimit="10" d="M221.409,24.494l-11.871,8.621
			c-0.258,0.187-0.682,0.189-0.941,0.005l-12.166-8.626"/>
	</g>
	<polyline fill="none" stroke="#FFFFFF" stroke-miterlimit="10" points="418.004,1792.024 427.958,1801.978 417.661,1812.275 	"/>
	<polyline fill="none" stroke="#CC0000" stroke-width="0.6" stroke-miterlimit="10" points="115.926,2572.074 121.898,2578.046 
		115.72,2584.224 	"/>
	<circle fill="#FFFFFF" cx="154.455" cy="2790.319" r="26.828"/>
	<g>
		<rect x="149.879" y="2773.882" fill="#FBC85F" width="9" height="24"/>
		<circle fill="#FBC85F" cx="154.849" cy="2806.06" r="3.935"/>
	</g>
	<circle fill="#F8B100" cx="140.455" cy="2931.319" r="26.828"/>
	<g>
		<rect x="135.879" y="2914.882" fill="#FFFFFF" width="9" height="24"/>
		<circle fill="#FFFFFF" cx="140.849" cy="2947.06" r="3.935"/>
	</g>
	<circle fill="#F8B100" cx="149.455" cy="3003.319" r="12.161"/>
	<g>
		<rect x="147.879" y="2995.882" fill="#FFFFFF" width="4" height="11"/>
		<circle fill="#FFFFFF" cx="149.634" cy="3010.455" r="1.784"/>
	</g>
	<polygon fill="#F8B100" points="161.879,3148.882 131.879,3148.882 131.879,3108.882 147.897,3108.882 161.879,3123.741 	"/>
	<polygon fill="#FBC85F" points="161.831,3123.882 147.879,3123.882 147.879,3108.65 	"/>
	<polygon fill="#F8B100" points="162.879,3208.882 145.879,3208.882 145.879,3186.882 155.436,3186.882 162.879,3194.868 	"/>
	<polygon fill="#FBC85F" points="163.332,3194.882 155.879,3194.882 155.879,3186.316 	"/>
	<polyline fill="none" stroke="#999999" stroke-width="1.0198" stroke-miterlimit="10" points="402.695,5209.024 413.046,5218.978 
		402.338,5229.275 	"/>
	
		<ellipse fill="none" stroke="#FFFFFF" stroke-width="4.9705" stroke-miterlimit="10" cx="34.405" cy="32.364" rx="24.015" ry="23.899"/>
	<g>
		<path fill="#008046" d="M44.622,27.514c0.252,0.178,0.257,0.577,0.257,0.886v14.164c0,0.309,0.15,0.318-0.159,0.318H22.519
			c-0.309,0-0.639-0.009-0.639-0.318V28.4c0-0.309,0.247-0.706,0.501-0.881l10.905-7.494c0.255-0.175,0.579-0.173,0.831,0.005
			L44.622,27.514z"/>
		<path fill="none" stroke="#FFFFFF" stroke-width="4" stroke-miterlimit="10" d="M44.622,27.514
			c0.252,0.178,0.257,0.577,0.257,0.886v14.164c0,0.309,0.15,0.318-0.159,0.318H22.519c-0.309,0-0.639-0.009-0.639-0.318V28.4
			c0-0.309,0.247-0.706,0.501-0.881l10.905-7.494c0.255-0.175,0.579-0.173,0.831,0.005L44.622,27.514z"/>
	</g>
	<g>
		<path fill="none" stroke="#FFFFFF" stroke-width="3.6087" stroke-linecap="round" stroke-miterlimit="10" d="M17.935,30.004
			l15.288-10.928c0.328-0.234,0.865-0.235,1.193-0.002l15.378,10.902"/>
	</g>
	<g>
		<path fill="#FFFFFF" d="M37.879,42.157c0,0.401-0.325,0.726-0.726,0.726h-6.549c-0.401,0-0.726-0.325-0.726-0.726V31.608
			c0-0.401,0.325-0.726,0.726-0.726h6.549c0.401,0,0.726,0.325,0.726,0.726V42.157z"/>
	</g>
	<polyline fill="none" stroke="#FFFFFF" stroke-miterlimit="10" points="418.004,1792.024 427.958,1801.978 417.661,1812.275 	"/>
	<polyline fill="none" stroke="#CC0000" stroke-width="0.6" stroke-miterlimit="10" points="115.926,2572.074 121.898,2578.046 
		115.72,2584.224 	"/>
	<circle fill="#FFFFFF" cx="154.455" cy="2790.319" r="26.828"/>
	<g>
		<rect x="149.879" y="2773.882" fill="#FBC85F" width="9" height="24"/>
		<circle fill="#FBC85F" cx="154.849" cy="2806.06" r="3.935"/>
	</g>
	<circle fill="#F8B100" cx="140.455" cy="2931.319" r="26.828"/>
	<g>
		<rect x="135.879" y="2914.882" fill="#FFFFFF" width="9" height="24"/>
		<circle fill="#FFFFFF" cx="140.849" cy="2947.06" r="3.935"/>
	</g>
	<circle fill="#F8B100" cx="149.455" cy="3003.319" r="12.161"/>
	<g>
		<rect x="147.879" y="2995.882" fill="#FFFFFF" width="4" height="11"/>
		<circle fill="#FFFFFF" cx="149.634" cy="3010.455" r="1.784"/>
	</g>
	<polygon fill="#F8B100" points="161.879,3148.882 131.879,3148.882 131.879,3108.882 147.897,3108.882 161.879,3123.741 	"/>
	<polygon fill="#FBC85F" points="161.831,3123.882 147.879,3123.882 147.879,3108.65 	"/>
	<polygon fill="#F8B100" points="162.879,3208.882 145.879,3208.882 145.879,3186.882 155.436,3186.882 162.879,3194.868 	"/>
	<polygon fill="#FBC85F" points="163.332,3194.882 155.879,3194.882 155.879,3186.316 	"/>
	<polyline fill="none" stroke="#999999" stroke-width="1.0198" stroke-miterlimit="10" points="402.695,5209.024 413.046,5218.978 
		402.338,5229.275 	"/>
	<g>
		<g>
			<path fill="#008046" d="M124.901,18.088c0.405-0.002,0.738,0.328,0.74,0.733l0.128,27.561c0.002,0.405-0.328,0.738-0.733,0.74
				l-15.884,0.074c-0.405,0.002-0.738-0.328-0.74-0.733l-0.128-27.56c-0.002-0.405,0.328-0.738,0.733-0.74L124.901,18.088z"/>
			<path fill="none" stroke="#FFFFFF" stroke-width="3.6087" stroke-miterlimit="10" d="M124.901,18.088
				c0.405-0.002,0.738,0.328,0.74,0.733l0.128,27.561c0.002,0.405-0.328,0.738-0.733,0.74l-15.884,0.074
				c-0.405,0.002-0.738-0.328-0.74-0.733l-0.128-27.56c-0.002-0.405,0.328-0.738,0.733-0.74L124.901,18.088z"/>
		</g>
		<rect x="108.961" y="42.2" transform="matrix(1 -0.0046 0.0046 1 -0.205 0.5353)" fill="#FFFFFF" width="16.249" height="5.879"/>
		<ellipse transform="matrix(1 -0.0047 0.0047 1 -0.2096 0.5469)" fill="#008B5C" cx="117.004" cy="45.147" rx="1.359" ry="1.354"/>
		<g>
			
				<ellipse fill="none" stroke="#FFFFFF" stroke-width="4.9705" stroke-miterlimit="10" cx="116.805" cy="32.364" rx="24.015" ry="23.899"/>
			<polyline fill="none" stroke="#F9A800" stroke-miterlimit="10" points="514.004,27.524 523.958,37.478 513.661,47.775 			"/>
			<polyline fill="none" stroke="#FFFFFF" stroke-miterlimit="10" points="418.004,1792.024 427.958,1801.978 417.661,1812.275 			
				"/>
			<polyline fill="none" stroke="#CC0000" stroke-width="0.6" stroke-miterlimit="10" points="115.926,2572.074 121.898,2578.046 
				115.72,2584.224 			"/>
			<circle fill="#FFFFFF" cx="154.455" cy="2790.319" r="26.828"/>
			<g>
				<rect x="149.879" y="2773.882" fill="#FBC85F" width="9" height="24"/>
				<circle fill="#FBC85F" cx="154.849" cy="2806.06" r="3.935"/>
			</g>
			<circle fill="#F8B100" cx="140.455" cy="2931.319" r="26.828"/>
			<g>
				<rect x="135.879" y="2914.882" fill="#FFFFFF" width="9" height="24"/>
				<circle fill="#FFFFFF" cx="140.849" cy="2947.06" r="3.935"/>
			</g>
			<circle fill="#F8B100" cx="149.455" cy="3003.319" r="12.161"/>
			<g>
				<rect x="147.879" y="2995.882" fill="#FFFFFF" width="4" height="11"/>
				<circle fill="#FFFFFF" cx="149.634" cy="3010.455" r="1.784"/>
			</g>
			<polygon fill="#F8B100" points="161.879,3148.882 131.879,3148.882 131.879,3108.882 147.897,3108.882 161.879,3123.741 			"/>
			<polygon fill="#FBC85F" points="161.831,3123.882 147.879,3123.882 147.879,3108.65 			"/>
			<polygon fill="#F8B100" points="162.879,3208.882 145.879,3208.882 145.879,3186.882 155.436,3186.882 162.879,3194.868 			"/>
			<polygon fill="#FBC85F" points="163.332,3194.882 155.879,3194.882 155.879,3186.316 			"/>
			<polyline fill="none" stroke="#999999" stroke-width="1.0198" stroke-miterlimit="10" points="402.695,5209.024 
				413.046,5218.978 402.338,5229.275 			"/>
		</g>
	</g>
	<g>
		<g>
			<g>
				
					<rect x="416.08" y="37.178" transform="matrix(0.7071 0.7071 -0.7071 0.7071 153.9941 -282.0119)" fill="#333333" width="2.671" height="15.407"/>
				
					<rect x="412.989" y="41.225" transform="matrix(0.7074 0.7068 -0.7068 0.7074 154.7793 -279.7428)" fill="#333333" width="4.591" height="11.717"/>
			</g>
		</g>
	</g>
	<circle fill="none" stroke="#333333" stroke-width="3.3855" stroke-miterlimit="10" cx="428.814" cy="33.552" r="9.456"/>
	<circle fill="#F9A800" cx="480.995" cy="39.51" r="13.693"/>
	<polygon fill="#FFFFFF" points="481.727,45.784 479.973,48.71 472.31,41.022 474.638,38.695 	"/>
	
		<rect x="481.743" y="31.207" transform="matrix(0.8585 0.5129 -0.5129 0.8585 88.829 -242.2882)" fill="#FFFFFF" width="3.292" height="17.176"/>
	<polyline fill="none" stroke="#F9A800" stroke-miterlimit="10" points="2887.004,-1620.976 2896.958,-1611.022 2886.661,-1600.725 
			"/>
	<polyline fill="none" stroke="#FFFFFF" stroke-miterlimit="10" points="578.004,27.024 587.958,36.978 577.661,47.275 	"/>
	<polyline fill="none" stroke="#CC0000" stroke-width="0.6" stroke-miterlimit="10" points="559.926,31.574 565.899,37.547 
		559.72,43.725 	"/>
	<circle fill="#FFFFFF" cx="651.455" cy="37.319" r="26.827"/>
	<g>
		<rect x="646.879" y="20.882" fill="#F8B100" width="9" height="24"/>
		<circle fill="#F8B100" cx="651.849" cy="53.06" r="3.935"/>
	</g>
	<circle fill="#F8B100" cx="728.455" cy="35.319" r="26.827"/>
	<g>
		<rect x="723.879" y="18.882" fill="#FFFFFF" width="9" height="24"/>
		<circle fill="#FFFFFF" cx="728.849" cy="51.06" r="3.935"/>
	</g>
	<circle fill="#F8B100" cx="805.455" cy="36.319" r="12.161"/>
	<g>
		<rect x="803.879" y="28.882" fill="#FFFFFF" width="4" height="11"/>
		<circle fill="#FFFFFF" cx="805.634" cy="43.455" r="1.784"/>
	</g>
	<polygon fill="#F8B100" points="895.879,56.882 865.879,56.882 865.879,16.882 881.897,16.882 895.879,31.905 	"/>
	<polygon fill="#FBC85F" points="895.831,31.882 881.879,31.882 881.879,16.879 	"/>
	<polygon fill="#F8B100" points="942.879,53.882 925.879,53.882 925.903,31.882 935.864,31.882 942.879,39.868 	"/>
	<polygon fill="#FBC85F" points="942.887,39.882 935.879,39.882 935.879,31.914 	"/>
	<polyline fill="none" stroke="#999999" stroke-width="1.0198" stroke-miterlimit="10" points="534.695,27.524 545.046,37.478 
		534.338,47.775 	"/>
</g>
</svg>
