<?xml version="1.0" encoding="UTF-8" standalone="no"?>
<!-- Created with Inkscape (http://www.inkscape.org/) -->

<svg
   xmlns:dc="http://purl.org/dc/elements/1.1/"
   xmlns:cc="http://creativecommons.org/ns#"
   xmlns:rdf="http://www.w3.org/1999/02/22-rdf-syntax-ns#"
   xmlns:svg="http://www.w3.org/2000/svg"
   xmlns="http://www.w3.org/2000/svg"
   xmlns:sodipodi="http://sodipodi.sourceforge.net/DTD/sodipodi-0.dtd"
   xmlns:inkscape="http://www.inkscape.org/namespaces/inkscape"
   id="svg2985"
   version="1.1"
   inkscape:version="0.48.5 r10040"
   width="1000"
   height="256.93756"
   xml:space="preserve"
   sodipodi:docname="AA.svg"><metadata
     id="metadata2991"><rdf:RDF><cc:Work
         rdf:about=""><dc:format>image/svg+xml</dc:format><dc:type
           rdf:resource="http://purl.org/dc/dcmitype/StillImage" /><dc:title></dc:title></cc:Work></rdf:RDF></metadata><defs
     id="defs2989"><clipPath
       clipPathUnits="userSpaceOnUse"
       id="clipPath3065"><path
         d="m 34.268,1123.133 266.835,0 0,180.352 -266.835,0 0,-180.352 z"
         id="path3067"
         inkscape:connector-curvature="0" /></clipPath><clipPath
       clipPathUnits="userSpaceOnUse"
       id="clipPath3374"><path
         inkscape:connector-curvature="0"
         d="m 28.346,457.087 301.181,0 0,109.843 -301.181,0 0,-109.843 z"
         id="path3376" /></clipPath><clipPath
       clipPathUnits="userSpaceOnUse"
       id="clipPath3382"><path
         inkscape:connector-curvature="0"
         d="m 28.346,566.929 200.551,0 0,-38.885 -200.551,0 0,38.885 z"
         id="path3384" /></clipPath><clipPath
       clipPathUnits="userSpaceOnUse"
       id="clipPath3390"><path
         inkscape:connector-curvature="0"
         d="m 28.346,566.929 200.551,0 0,-38.885 -200.551,0 0,38.885 z"
         id="path3392" /></clipPath><clipPath
       clipPathUnits="userSpaceOnUse"
       id="clipPath3398"><path
         inkscape:connector-curvature="0"
         d="m 14.447,595.229 227.931,0 0,-94.971 -227.931,0 0,94.971 z"
         id="path3400" /></clipPath><clipPath
       clipPathUnits="userSpaceOnUse"
       id="clipPath3633"><path
         inkscape:connector-curvature="0"
         d="m 163.966,35.433 479.939,0 0,80.943 -479.939,0 0,-80.943 z"
         id="path3635" /></clipPath><clipPath
       clipPathUnits="userSpaceOnUse"
       id="clipPath3753"><path
         inkscape:connector-curvature="0"
         d="m 22.234,35.433 55.812,0 0,94.954 -55.812,0 0,-94.954 z"
         id="path3755" /></clipPath><clipPath
       clipPathUnits="userSpaceOnUse"
       id="clipPath5350"><path
         inkscape:connector-curvature="0"
         d="m 36.141,895.748 290.491,0 0,74.422 -290.491,0 0,-74.422 z"
         id="path5352" /></clipPath></defs><sodipodi:namedview
     pagecolor="#ffffff"
     bordercolor="#666666"
     borderopacity="1"
     objecttolerance="10"
     gridtolerance="10"
     guidetolerance="10"
     inkscape:pageopacity="0"
     inkscape:pageshadow="2"
     inkscape:window-width="1058"
     inkscape:window-height="1028"
     id="namedview2987"
     showgrid="false"
     fit-margin-left="0.5"
     fit-margin-bottom="0.5"
     fit-margin-top="0.5"
     fit-margin-right="0.5"
     inkscape:zoom="0.12175339"
     inkscape:cx="1613.2638"
     inkscape:cy="-1112.8817"
     inkscape:window-x="854"
     inkscape:window-y="-8"
     inkscape:window-maximized="0"
     inkscape:current-layer="g2993" /><g
     id="g2993"
     inkscape:groupmode="layer"
     inkscape:label="gem_uh_dezeweek"
     transform="matrix(1.25,0,0,-1.25,1096.627,3375.7271)"><g
       id="g5346"
       transform="matrix(2.7512116,0,0,2.7512116,-976.33535,31.038736)"><g
         id="g5348"
         clip-path="url(#clipPath5350)"><g
           id="g5354"
           transform="translate(146.6513,918.3137)"><path
             d="M 0,0 C 0,0 0,0.663 0.516,0.59 1.032,0.516 1.032,0.221 1.032,0.221 1.032,0.221 0.516,-0.59 0,0 m 16.806,-15.403 -0.369,-0.443 c 0,0 -0.516,0.074 -0.516,0.369 0,0.295 0.369,0.295 0.369,0.295 l 0.516,-0.221 z m 29.705,-1.106 c 0,-0.442 -0.369,-0.442 -0.738,0 -0.368,0.442 0.296,0.516 0.296,0.516 0,0 0.442,-0.074 0.442,-0.516 m -12.677,-1.989 c 0,0 -0.885,-0.074 -1.475,0.073 -0.59,0.148 1.769,0.663 1.769,0.663 l -0.294,-0.736 z m 7.813,22.551 c 0,0 2.799,-0.074 3.316,-0.221 0,0 -0.295,-0.294 -1.4,-0.368 -1.106,-0.074 -1.769,0 -1.916,0.589 M 157.92,17.854 c 0,0 -1.238,-0.165 -0.991,0.413 0.248,0.578 1.288,0.352 2.807,0.248 2.396,-0.165 5.122,-0.165 5.452,-0.248 0.329,-0.083 0.412,-0.661 -0.247,-0.826 -0.661,-0.165 -1.488,0.33 -2.809,0.083 0,0 -0.496,-0.413 -1.569,-0.579 -1.073,-0.165 -1.982,0.826 -2.643,0.909 M 82.184,6.129 c 0,0 1.403,0.577 2.229,0.742 0.826,0.165 2.147,0.331 1.652,-0.082 -0.496,-0.413 -1.404,-0.991 -1.899,-1.073 -0.496,-0.083 -2.147,0 -2.147,0 l 0.165,0.413 z M 76.402,1.752 c 0,0 0.826,0.413 2.395,0.413 1.567,0 1.982,-1.322 1.982,-1.322 0,0 -1.073,0 -2.147,0.083 -1.073,0.082 -2.23,0.826 -2.23,0.826 M 75.163,0.018 c 0.826,-0.083 1.9,-1.322 1.9,-1.322 -3.716,-0.495 -4.131,1.404 -4.131,1.404 0,0 1.405,0 2.231,-0.082 M 56.002,-17.323 c 0,0 2.643,1.403 4.377,0.908 0,0 -1.569,-1.321 -2.23,-1.239 -0.662,0.083 -2.147,0.331 -2.147,0.331 m -1.735,-1.735 c 0,0 -0.743,-0.495 -2.146,-0.247 -1.405,0.247 -2.231,0.33 -2.067,0.825 0.165,0.496 1.735,0.331 1.735,0.331 l 2.478,-0.909 z m -14.453,-2.394 c 0,0 1.322,0.991 3.387,0.908 2.064,-0.083 4.625,-1.569 5.781,-1.569 0,0 -1.404,-0.825 -3.056,-0.247 -1.652,0.578 -5.038,1.486 -6.112,0.908 m -8.093,0.991 c 0,0 1.9,0.578 2.643,0.578 0.744,0 2.065,-0.248 2.394,-0.826 0,0 -1.32,0.082 -2.229,-0.247 -0.908,-0.331 -2.231,-0.331 -2.808,0.495 m -15.115,0.33 c 0,0 0.661,0.248 1.735,0.248 1.074,0 2.478,-0.248 2.395,-0.908 0,0 -0.165,-0.744 -1.404,-0.331 -1.239,0.413 -2.148,0.991 -2.726,0.991 M 3.971,-21.535 c 0,0 -0.414,0 2.146,0.331 2.561,0.33 2.147,0.577 3.056,0.743 0.908,0.165 4.212,0.578 4.46,0 0.248,-0.579 0.909,-0.743 -1.404,-0.743 -2.313,0 -3.303,-0.661 -4.377,-0.743 -1.074,-0.084 -3.469,-0.331 -3.881,0.412 m -6.773,4.542 c 0,0 0.908,0.991 2.146,0.908 1.24,-0.082 3.469,-1.321 4.461,-1.651 0.991,-0.331 2.395,-0.413 3.055,-0.248 0,0 -1.569,-1.652 -2.312,-1.239 -0.743,0.413 -2.973,1.404 -4.129,1.652 -1.157,0.248 -3.221,0.578 -3.221,0.578 M -25.02,3.073 c 0,0 0.661,0.496 1.322,0.33 0.661,-0.165 2.313,-0.743 2.973,-0.991 0.661,-0.247 2.147,0 2.809,0.083 0,0 -0.497,-0.826 -1.983,-0.743 -1.486,0.082 -1.735,0.33 -2.973,0.743 -1.239,0.413 -2.148,0.578 -2.148,0.578 m 5.452,-6.606 c 0,0 1.816,0.908 2.642,0.991 0.826,0.082 2.313,0.247 2.148,-0.33 0,0 -0.743,-0.909 -1.9,-0.909 -1.156,0 -2.147,-0.578 -2.89,0.248 m 36.174,14.616 c -0.169,0.466 0.414,0.082 0.909,0.082 0.495,0 1.157,-0.247 1.157,-0.247 0,0 -1.735,-0.744 -2.066,0.165 M -29.954,8.38 c 0.859,-0.477 0.477,-1.05 0,-1.05 -0.478,0 -1.338,-0.479 -1.912,-1.052 -0.573,-0.573 -2.403,-0.979 -2.58,-0.096 -0.095,0.479 0.478,0.956 1.338,1.243 0.86,0.286 2.294,1.434 3.154,0.955 m 142.676,6.116 c 1.243,-0.668 5.256,-0.381 4.587,-0.573 -0.669,-0.191 -3.918,-0.956 -5.065,-0.956 -1.147,0 -2.867,0.192 -2.581,1.435 0.288,1.241 1.818,0.763 3.059,0.094 M 93.514,17.65 c 0.095,-0.238 0.191,-0.286 -0.097,-0.286 -0.286,0 -0.429,-0.144 -0.477,0.143 -0.047,0.287 -0.143,0.382 0.383,0.382 0.525,0 0.094,0 0.191,-0.239 m 2.962,0.048 c 0,0 1.529,0.765 2.341,0.621 0.812,-0.143 3.153,-0.43 2.915,-1.099 -0.24,-0.669 -2.341,-0.43 -3.01,-0.287 -1.363,0.292 -2.246,0.765 -2.246,0.765 m -1.338,-4.874 c 0,0 -1.624,0.192 -0.526,0.86 1.1,0.669 2.532,-0.287 3.298,-0.668 0.764,-0.383 1.29,-0.622 0.716,-1.004 -0.573,-0.383 -0.764,-0.287 -1.576,-0.143 -0.812,0.143 -1.912,0.955 -1.912,0.955 m -15.625,3.871 c 0,0 1.864,-1.864 5.877,-1.53 4.014,0.335 8.602,1.004 9.175,0.335 0,0 -3.775,0.048 -5.496,-0.955 -1.718,-1.004 -4.682,-1.434 -6.975,-0.717 -2.293,0.717 -2.437,2.055 -2.581,2.867 m -7.931,-4.731 c 0,0 -0.478,0.669 0.143,0.813 0.621,0.143 1.195,0.382 1.052,0 -0.145,-0.383 -0.479,-1.195 -1.195,-0.813 m -4.826,-1.529 c 0.573,0.908 2.388,0.86 2.388,0.86 -0.573,-1.338 -2.388,-0.86 -2.388,-0.86 m 1.401,4.699 c -0.382,0 -1.339,-0.127 -1.339,0.127 0,0.254 0.702,0.573 1.721,0.51 1.019,-0.064 4.238,-0.223 5.002,0.063 0.764,0.287 0.24,0.096 0.24,0.096 0,0 0.62,-0.239 -0.24,-0.478 -0.4,-0.111 -1.416,-0.378 -2.528,-0.429 -1.278,-0.057 -2.651,0.111 -2.856,0.111 m -9.302,0.127 c 0,0 -0.955,0.128 -0.253,0.637 0.7,0.51 1.719,0.701 2.165,1.019 0.446,0.319 2.294,0.255 2.294,-0.254 0,-0.51 -2.23,-1.72 -2.804,-1.656 -0.573,0.063 -1.402,0.254 -1.402,0.254 m -2.93,-4.587 c 0,0 0.127,0.318 0.637,0.128 0.51,-0.192 1.785,-0.128 2.357,0.063 0.574,0.191 4.077,1.211 4.588,0.892 0,0 0.127,-0.382 -0.892,-0.701 -0.329,-0.103 -0.823,-0.509 -1.574,-0.709 -1.579,-0.42 -3.864,-0.579 -5.116,0.327 M 48.407,-6.145 c 0,0 1.146,0.764 1.976,0.637 0.828,-0.127 6.689,-1.211 8.728,-1.02 2.039,0.192 4.141,0.893 4.459,1.402 0,0 -0.463,-2.531 -3.522,-2.849 -0.339,-0.035 -1.603,-0.15 -2.655,0 -1.487,0.212 -2.904,0.754 -3.761,1.066 -2.102,0.764 -4.397,1.082 -5.225,0.764 M 50.7,-16.02 c 0,0 0.766,0.764 1.339,0.637 0.573,-0.128 0.956,-0.51 0.956,-0.51 0,0 -0.702,-0.573 -1.085,-0.573 -0.38,0 -1.21,0.446 -1.21,0.446 m -24.845,-2.23 c 0,0 1.465,1.274 2.612,1.274 1.146,0 2.039,-0.127 2.23,-0.51 0,0 -2.421,-2.229 -4.842,-0.764 m 20.641,15.099 c 0,0 0.765,0.701 1.401,0.701 0.638,0 0.829,-0.51 1.274,-0.637 l -2.675,-0.064 z m 2.675,2.358 c 0,0 0.255,0.573 1.466,0.573 1.21,0 2.422,-0.637 3.122,-1.084 0,0 -0.764,-0.573 -1.593,-0.509 -0.828,0.064 -2.548,0.255 -2.995,1.02 m 4.715,2.165 c -0.51,0 -0.955,0.255 -0.191,0.447 0.766,0.191 3.314,0.127 4.269,0 0,0 0.891,-0.319 -0.191,-0.447 -1.084,-0.127 -3.376,0 -3.887,0 M 47.133,5.45 c 0,0 4.269,-0.255 5.097,-0.255 0.829,0 2.039,0 1.656,-0.446 C 53.503,4.303 52.931,3.666 52.485,3.73 52.039,3.793 48.28,4.686 47.133,5.45 m -1.721,4.969 c 0,0 -1.593,0.51 -0.318,1.02 1.275,0.509 1.593,0.445 2.613,0.382 1.019,-0.064 2.357,-0.701 2.612,-1.211 0,0 -1.784,0.128 -2.55,0 -0.764,-0.127 -1.4,-0.764 -2.357,-0.191 m 5.543,3.823 c 0,0 1.338,0.063 2.04,-0.064 0.7,-0.127 2.548,-0.828 3.503,-0.892 0.955,-0.064 1.976,0 1.976,0 0,0 -0.701,-1.083 -2.358,-0.828 -1.655,0.255 -4.459,1.338 -4.97,1.401 -0.509,0.064 -0.191,0.383 -0.191,0.383 m -14.397,3.44 c 0,0 2.931,0.892 5.097,0.446 2.164,-0.446 5.032,-1.211 5.861,-1.465 0.378,-0.116 1.546,-0.174 2.268,-0.398 0.862,-0.267 1.277,-0.691 1.554,-0.622 0,0 -3.822,-0.318 -4.906,0.064 -1.083,0.382 -6.754,2.294 -9.874,1.975 m -3.44,-1.784 c 0,0 2.421,0.447 3.376,0.255 0.955,-0.191 2.675,-0.319 3.248,-1.019 0,0 -4.714,-0.382 -6.624,0.764 M 18.656,-9.777 c 0,0 0.637,0.637 1.083,0.255 0.446,-0.382 0.637,-0.955 0.127,-0.828 -0.509,0.128 -0.701,-0.255 -1.21,0.573 m 1.656,6.244 c 0,0 2.612,1.21 3.759,0.955 1.147,-0.254 1.338,-0.382 0.828,-0.637 -0.423,-0.211 -2.24,-1.51 -3.851,-1.06 -0.332,0.093 -0.41,0.503 -0.736,0.742 M 4.958,-9.076 c 0,0 1.02,0.637 1.976,0.446 0.955,-0.191 2.42,-1.338 2.866,-1.466 0,0 -3.759,-0.573 -4.842,1.02 m -4.459,1.975 c 0,0 0.68,0.094 1.381,0.53 0.73,0.454 1.503,1.22 2.377,1.318 0.574,0.063 1.466,-0.319 1.593,-0.701 0,0 -1.72,-0.446 -2.484,-1.211 -0.765,-0.764 -2.421,-1.019 -2.867,0.064 m 2.039,4.333 c 0,0 4.459,1.719 10.193,-0.447 0,0 -1.593,-1.401 -5.033,-0.828 -3.441,0.574 -5.16,1.275 -5.16,1.275 m 0.891,6.88 c 0,0 0.446,0.574 2.23,0.127 1.784,-0.446 4.778,-2.93 6.116,-2.548 0,0 -1.847,-0.573 -2.676,-0.255 -0.828,0.319 -4.651,2.613 -5.67,2.676 m -8.473,1.465 c 0,0 2.867,2.166 7.582,2.039 4.714,-0.127 5.797,-0.51 6.88,-0.51 1.083,0 2.549,-0.382 2.803,0.064 0,0 -1.019,-1.529 -3.313,-1.083 C 6.615,6.533 1.773,7.042 -0.202,6.469 -1.263,6.161 -2.407,6.079 -3.258,5.824 -3.99,5.605 -4.49,5.558 -4.726,5.323 -5.152,4.898 -5.044,5.577 -5.044,5.577 m 2.166,6.18 c 0,0 2.357,-1.529 3.759,-1.338 1.402,0.191 3.695,1.274 4.587,1.338 0.892,0.064 2.803,-0.701 3.058,-1.21 0,0 -2.548,0.637 -3.058,0.318 C 4.958,10.547 3.811,9.4 3.047,9.4 2.283,9.4 -1.858,9.209 -2.878,11.757 m 13.57,3.568 c 0,0 1.338,-0.382 2.039,0 0.7,0.382 4.46,1.975 5.607,1.975 1.146,0 2.293,-0.765 2.42,-1.147 0.128,-0.382 -1.656,0.319 -2.676,-0.127 -1.019,-0.447 -3.249,-1.911 -4.651,-1.911 -1.401,0 -2.484,0.063 -2.739,1.21 M -4.025,15.07 c 0,0 6.371,1.465 7.773,1.656 1.401,0.191 6.052,0.956 6.307,0.382 0,0 0,0.192 -1.848,-0.445 -1.56,-0.539 -6.248,-2.431 -10.14,-2.006 -0.715,0.077 -1.419,0.166 -2.092,0.413 m -1.72,-1.848 c 0,0 3.95,0.255 4.523,0.128 l -0.127,-0.319 c 0,0 -3.695,-0.382 -4.332,-0.191 -0.637,0.191 -0.064,0.382 -0.064,0.382 m -9.619,-2.166 c -0.319,0.319 0.7,0.191 0.7,0.191 0,-0.445 -0.382,-0.509 -0.7,-0.191 m 5.478,2.612 c 0,0 1.465,0.447 1.657,0.128 0,0 0.509,-0.319 -0.51,-0.382 -1.02,-0.064 -1.083,-0.064 -1.147,0.254 M -10.65,9.336 c 0,0 3.249,1.784 4.841,0.446 0,0 -3.313,-2.293 -4.841,-0.446 m -7.646,-1.338 c 0,0 0.255,0.892 2.167,0.765 1.911,-0.128 3.695,-1.912 8.091,-1.721 0,0 1.465,0.319 0.828,-0.445 -0.637,-0.765 -1.593,-1.02 -3.632,-0.637 -2.038,0.382 -6.307,2.038 -7.454,2.038 m 2.868,6.244 c 0,0 2.293,0 2.93,-0.701 0,0 -0.892,-0.382 -1.529,-0.319 -0.637,0.064 -1.019,-0.063 -1.401,1.02 m -8.41,-3.504 c 0,0 5.351,-0.255 5.861,-0.446 0,0 -0.765,-1.083 -1.912,-1.083 -1.147,0 -3.949,1.529 -3.949,1.529 m -2.676,3.121 c 0,0 5.096,0.893 8.473,0.701 0,0 0.383,-1.529 -4.268,-1.593 0,0 -3.44,-0.382 -4.205,0.892 m -6.243,1.02 c 0,0 1.847,2.548 9.492,2.166 0,0 1.211,-0.255 2.676,-0.51 1.465,-0.254 4.65,-0.318 5.287,0.255 0,0 0,-1.529 -3.121,-1.275 -3.122,0.256 -4.906,0.83 -8.537,0.256 -3.632,-0.574 -5.033,-0.892 -5.797,-0.892 m -3.505,1.911 c 0,0 0.765,0.574 2.103,0.51 1.338,-0.064 2.166,0 2.166,0 0,0 -0.382,-0.637 -1.529,-0.892 -1.147,-0.255 -2.23,-0.382 -2.74,0.382 m -12.296,0.191 c 0,0 1.402,1.083 3.759,0.574 2.358,-0.51 5.288,-1.466 6.499,-1.466 1.21,0 2.548,0 2.421,-0.892 -0.192,-1.338 -1.592,-1.25 -2.867,-1.21 -2.039,0.064 -5.161,2.358 -5.925,2.358 -0.765,0 -3.441,0.636 -3.887,0.636 m -43.609,2.772 c 0,0 8.315,0.478 10.035,0.191 1.72,-0.287 6.027,-0.722 7.645,-0.574 3.472,0.319 4.969,-0.286 7.167,-0.382 0.766,-0.033 2.466,-0.341 5.156,-0.396 2.141,-0.043 4.649,0.231 6.887,0.183 3.023,-0.064 5.553,-0.48 6.019,-0.838 0,0 2.58,1.72 4.013,1.147 1.434,-0.574 2.581,-0.86 3.727,-0.669 1.147,0.191 6.023,1.023 8.123,0.573 2.676,-0.573 5.065,-0.573 6.69,-0.478 1.624,0.096 2.484,0.096 2.484,0.096 0,0 0.956,-0.573 1.912,-0.573 0.956,0 1.528,0.668 3.631,0.573 2.103,-0.096 7.741,-0.669 13.188,-0.669 4.353,0 6.372,0.569 7.428,0.898 0.491,0.153 1.151,0.3 1.328,0.351 0.645,0.185 2.878,-0.478 6.82,-0.598 3.565,-0.108 8.022,0.219 10.609,0.4 0,0 -1.147,-0.669 -0.478,-0.86 0.669,-0.191 1.242,-0.573 2.197,-0.764 0.956,-0.192 2.485,-0.574 2.677,0.286 0,0 -1.53,1.243 -2.007,1.434 0,0 4.395,0.286 5.255,0 0.861,-0.287 1.435,-1.625 2.581,-1.625 1.146,0 2.77,1.529 4.014,1.625 1.241,0.095 5.924,0.191 9.174,-0.574 3.248,-0.764 5.923,-1.146 12.135,-0.477 0,0 6.005,0.376 12.043,0.455 4.738,0.063 9.461,-0.169 11.562,-0.169 0,0 1.498,-0.127 2.133,-0.064 0.638,0.064 1.707,0.336 3.95,0.383 3.059,0.063 15.737,0.319 17.648,0 0,0 -0.318,-0.956 0.957,-1.147 1.273,-0.191 3.058,0.701 3.886,0.828 0.828,0.127 2.357,0.446 4.65,0.064 2.294,-0.382 8.537,-0.764 11.468,-0.509 2.931,0.254 6.817,0.445 7.391,0.318 0,0 -0.319,-0.637 0.955,-0.446 1.274,0.191 4.078,1.147 6.689,1.083 2.612,-0.064 8.219,-0.637 10.067,-0.51 1.847,0.127 4.078,0.064 4.586,0.255 0,0 -1.529,-1.975 -6.115,-1.848 -3.76,0.105 -10.831,0.701 -12.296,0.51 -1.466,-0.191 -6.625,-0.573 -8.665,-0.955 -2.038,-0.383 -7.836,-1.084 -10.894,-0.829 -3.059,0.255 -3.249,0.829 -4.969,0.893 -1.721,0.063 -8.41,0.063 -3.314,-1.849 0,0 -3.439,0.256 -3.822,-0.828 0,0 -0.064,-0.509 1.274,-0.573 0,0 0.955,-0.255 1.21,-0.701 0,0 -3.758,-0.318 -7.071,-1.147 -3.313,-0.828 -6.818,-1.593 -9.366,-0.191 0,0 -1.019,-1.72 4.078,-2.039 0,0 3.249,-0.318 3.249,-0.891 0,0 -2.867,-1.02 -8.792,-0.064 0,0 -6.625,0.064 -8.6,-0.319 0,0 -0.191,1.147 1.783,1.02 1.976,-0.128 3.378,-0.128 3.76,0.191 0.381,0.319 1.591,1.338 -2.167,2.038 -3.017,0.563 -9.812,0.383 -9.62,-0.891 0,0 0.254,-0.637 1.656,-0.447 1.402,0.192 3.95,0.893 4.397,0.447 0,0 0.319,-1.02 -2.867,-1.402 0,0 -2.867,-3.058 -8.729,-2.931 -5.86,0.128 -5.86,1.02 -6.243,1.338 0,0 -4.014,-0.255 -4.587,0.064 -0.282,0.156 -1.962,0.617 -3.331,1.096 -1.42,0.496 -2.541,0.943 -3.614,0.943 -1.528,0 -0.891,-0.574 -0.318,-0.956 0.204,-0.136 1.157,-0.878 2.625,-1.36 1.31,-0.431 3.15,-0.615 3.3,-0.615 0.318,0 0.382,-1.019 1.146,-1.338 0.765,-0.318 1.848,-0.128 2.04,0.383 0,0 0.827,0.382 1.656,-0.255 0.386,-0.298 3.01,-0.672 6.694,-0.547 1.752,0.06 3.71,0.466 5.548,0.635 2.588,0.239 4.932,0.258 6.106,0.357 0,0 0.51,-0.445 -0.255,-0.445 -0.764,0 -2.485,0.255 -2.548,-0.319 -0.065,-0.574 -0.065,-1.019 1.082,-0.892 1.148,0.128 3.314,0.637 3.888,0.51 C 82.11,4.239 82.045,4.175 81.601,3.921 81.154,3.666 77.713,2.519 75.356,2.838 74.269,2.985 73.203,3.127 72.24,3.387 c -1.123,0.302 -2.083,0.72 -2.427,0.788 -0.636,0.128 -0.7,-0.509 -0.7,-0.891 0,0 -6.625,0.509 -7.263,0.191 C 61.213,3.156 58.919,2.073 60.129,1.5 61.341,0.926 61.786,1.819 62.932,2.073 64.081,2.328 70.387,2.201 71.406,1.755 72.425,1.309 72.489,0.99 71.088,0.672 69.686,0.353 63.89,0.544 62.424,0.608 60.959,0.672 57.072,0.417 57.136,-0.156 57.2,-0.73 58.791,-1.049 60.704,-1.24 c 1.911,-0.19 8.6,-0.254 9.747,0.191 0,0 -3.186,-1.593 -4.779,-1.529 -1.591,0.064 -2.038,0.064 -1.911,-0.509 0.129,-0.573 0.192,-1.657 3.057,-0.637 0,0 1.977,0.318 2.931,0.255 0,0 1.21,0.063 1.848,-0.637 0.638,-0.701 1.211,-1.147 1.657,-1.211 0,0 -1.734,-0.039 -3.374,-0.216 -2.011,-0.217 -4.201,-0.417 -4.271,-0.803 0,0 0.191,-0.829 1.784,-0.765 1.593,0.064 1.784,-0.191 1.784,-0.701 0,0 -3.377,0.255 -4.652,-0.127 0,0 -1.018,-0.701 -1.784,-0.51 -0.764,0.192 -1.91,0.255 -1.082,-0.701 0,0 0.255,-0.573 1.465,-0.573 1.21,0 2.421,0.255 2.357,-0.446 0,0 -1.211,-0.382 -1.72,-0.764 -0.509,-0.383 -0.318,-1.211 -1.911,-0.892 -1.593,0.318 -5.479,1.465 -8.664,-0.637 0,0 -0.191,-1.084 3.695,-1.02 0,0 4.269,0 4.396,-0.701 0.126,-0.701 -0.638,-0.764 -1.465,-0.701 -0.83,0.064 -3.378,0.128 -3.95,-0.509 -0.574,-0.637 -1.212,-1.848 -1.784,-1.784 -0.575,0.064 -2.231,-0.191 -3.314,-0.51 -1.082,-0.318 -4.332,-1.592 -5.352,0.446 0,0 -1.018,-0.573 -1.782,-0.509 -0.766,0.063 -2.739,0.191 -2.739,-0.447 0,0 0,-0.445 2.165,-0.7 2.165,-0.255 4.777,-0.956 5.415,-0.956 0,0 -1.912,-0.573 -3.503,-0.127 -1.593,0.446 -4.715,0.573 -5.479,0.318 -0.766,-0.254 -2.104,-0.828 -3.186,0.51 0,0 -3.44,0.255 -4.778,0.191 -1.338,-0.064 -1.401,-0.382 -2.102,-0.701 -0.701,-0.318 -2.103,-0.318 -2.994,-0.318 -0.892,0 -1.912,-0.064 -2.358,-0.064 0,0 1.338,1.338 0.446,1.593 0,0 -2.484,-0.191 -4.651,0.382 -2.166,0.573 -5.351,1.083 -5.224,-0.318 0,0 0.574,-0.447 1.147,-0.383 0,0 0.736,-0.761 -1.912,-0.637 0,0 -2.548,0.637 -3.695,0.765 -1.147,0.127 -1.72,0 -2.102,-0.446 0,0 0.063,1.147 2.294,1.083 2.229,-0.064 3.376,-0.319 4.141,0.956 0,0 0.764,0.445 1.274,0.445 0,0 -1.274,1.083 -3.505,0.319 -2.229,-0.764 -4.013,-0.063 -4.904,0.127 0,0 -0.829,-0.701 -1.402,0.064 -0.574,0.765 -2.612,0.446 -3.759,0.509 -1.147,0.064 -4.587,-0.19 -5.989,1.402 0,0 6.371,-0.841 6.371,1.657 0,1.847 -2.867,2.42 -3.568,2.294 -0.701,-0.128 -2.93,-0.765 -1.974,-1.275 0.955,-0.51 1.529,-1.019 2.293,-1.147 0,0 -0.127,-1.656 -2.102,-0.573 -1.976,1.083 -3.44,1.72 -4.141,1.72 0,0 1.019,0.764 1.91,0.574 0.893,-0.191 1.084,-0.064 0.893,0.382 -0.192,0.445 -1.593,0.573 -2.74,0.573 -1.147,0 -1.784,-0.191 -2.357,0.892 0,0 1.656,-0.127 1.911,0.382 0,0 -4.714,2.166 -6.753,2.422 0,0 1.211,0.637 2.803,0.254 1.593,-0.382 4.205,-0.764 4.524,-1.274 0.318,-0.51 -0.382,-1.083 0.191,-1.338 0.573,-0.254 2.293,-0.318 2.548,0.191 0.255,0.51 0.319,0.701 1.083,0.637 0.765,-0.063 1.975,-0.445 1.784,0.51 -0.192,0.956 -0.892,1.784 -4.587,2.039 -3.695,0.255 -6.498,-0.064 -7.327,0.955 0,0 3.377,0.701 5.161,0.51 1.783,-0.191 6.498,-1.465 6.498,-0.128 0,0.893 -4.715,1.084 -6.626,1.657 -0.874,0.262 -2.278,0.535 -3.628,0.666 -1.601,0.156 -3.153,0.138 -4.017,0.035 0,0 -0.255,-0.128 -1.019,1.21 0,0 -3.822,0.255 -5.16,0.382 0,0 0.127,0.574 0.955,0.574 0.828,0 3.632,0.255 4.779,-0.191 1.146,-0.446 1.528,-1.147 2.165,-1.147 0.637,0 3.377,0.574 5.989,0.191 2.612,-0.382 4.715,-0.637 4.842,-0.064 0,0 -8.027,2.103 -10.512,1.721 0,0 1.911,1.847 6.69,1.529 4.778,-0.319 6.816,-1.848 7.772,-1.275 0.956,0.574 0.828,1.275 -0.319,1.593 -1.147,0.319 -5.479,0.255 -8.091,0.446 -2.612,0.191 -8.027,-0.892 -9.875,-0.382 -1.847,0.509 -6.498,2.23 -10.129,1.975 0,0 1.147,1.657 3.249,1.529 2.102,-0.128 2.739,-0.637 3.631,-0.191 0,0 -1.146,1.083 -3.058,1.274 0,0 -1.592,-0.51 -2.038,0.382 0,0 -2.103,0.191 -2.995,0.829 -0.892,0.637 -1.274,1.019 -1.912,0.955 0,0 1.211,0.765 2.103,0.892 0.892,0.128 0.637,0.573 0.255,0.637 -0.382,0.064 -7.581,-0.701 -8.919,-0.637 -1.338,0.064 -4.906,0.191 -5.479,2.103 l -2.039,-0.064 c 0,0 1.147,1.592 -0.446,1.783 -1.593,0.192 -1.529,-1.146 -3.759,-1.082 -2.23,0.063 -7.709,1.082 -9.62,1.274 -1.911,0.191 -3.95,0.637 -5.797,1.019 -1.848,0.382 -5.479,0.319 -6.308,0.064 0,0 1.402,2.23 4.524,1.784 3.122,-0.447 5.543,-1.912 6.944,-2.103 1.401,-0.191 2.739,-0.127 3.631,-0.191 0.892,-0.064 3.441,-0.828 4.46,-0.892 1.02,-0.064 -0.064,1.146 -0.828,1.529 -0.765,0.383 -2.676,0.51 -3.568,0.51 -0.51,0 -3.371,0.29 -6.391,0.765 -2.261,0.357 -4.696,0.874 -5.841,1.146 0,0 -2.102,0.064 -5.224,-0.509 0,0 -3.743,0.039 -7.715,0.376 -4.51,0.382 -9.427,1.093 -11.494,1.567"
             style="fill:#0065ab;fill-opacity:1;fill-rule:evenodd;stroke:none"
             id="path5356"
             inkscape:connector-curvature="0" /></g><g
           id="g5358"
           transform="translate(62.8315,952.8448)"><path
             d="m 0,0 c -1.212,-1.306 -1.927,-2.736 -2.3,-3.637 2.051,0.621 3.015,1.212 4.166,2.3 0.963,0.902 1.212,1.834 1.212,2.114 0,0.311 -0.155,0.715 -0.715,0.715 C 1.928,1.492 1.119,1.213 0,0 m 4.943,0.591 c 0,-2.363 -3.077,-3.917 -7.555,-5.161 -0.217,-0.529 -0.435,-1.523 -0.435,-2.767 0,-1.057 0.653,-1.772 1.492,-1.772 1.12,0 1.897,0.622 3.265,1.803 0.28,0 0.466,-0.249 0.404,-0.529 -1.896,-2.331 -3.669,-2.829 -4.974,-2.829 -1.865,0 -2.518,1.741 -2.518,3.264 0,1.959 1.243,5.752 4.632,8.364 1.617,1.243 2.829,1.492 3.731,1.492 1.243,0 1.958,-1.057 1.958,-1.865"
             style="fill:#000000;fill-opacity:1;fill-rule:nonzero;stroke:none"
             id="path5360"
             inkscape:connector-curvature="0" /></g><g
           id="g5362"
           transform="translate(82.0758,951.2592)"><path
             d="m 0,0 -1.182,-2.86 0.094,-0.062 C 1.896,1.835 4.259,4.042 6.311,4.042 7.493,4.042 8.052,3.389 8.052,2.363 8.052,1.866 7.835,0.902 7.555,0.187 6.995,-1.368 4.757,-6.435 4.663,-6.684 4.539,-6.995 4.508,-7.275 4.726,-7.275 c 0.528,0 2.021,1.026 2.922,2.114 0.435,0.062 0.497,-0.186 0.497,-0.435 -1.181,-1.99 -3.637,-3.482 -5.347,-3.482 -0.28,0 -0.746,0.404 -0.746,0.777 0,0.28 0.093,0.497 0.746,2.052 0.653,1.523 1.897,4.539 2.518,6.125 0.218,0.559 0.653,1.647 0.653,2.269 0,0.373 -0.031,0.747 -0.497,0.747 -0.902,0 -2.394,-1.586 -4.073,-3.731 -1.586,-1.99 -2.985,-4.446 -4.881,-7.866 -0.156,-0.249 -0.28,-0.373 -0.56,-0.373 -0.341,0 -1.181,0.093 -0.901,0.808 l 3.078,8.146 c 0.124,0.342 1.368,3.016 0.248,3.016 -0.87,0 -2.611,-1.617 -4.321,-3.731 -1.617,-2.021 -2.86,-4.446 -4.663,-7.866 -0.156,-0.28 -0.28,-0.373 -0.56,-0.373 -0.342,0 -1.182,0.093 -0.902,0.808 0.093,0.249 3.42,9.327 3.545,9.793 0.155,0.529 0.124,0.871 -0.218,0.871 -1.026,0 -2.114,-0.933 -2.736,-1.71 -0.311,0 -0.466,0.218 -0.435,0.467 0.777,1.492 2.425,2.891 4.787,2.891 0.716,0 1.026,-0.56 0.747,-1.275 l -2.145,-5.627 0.093,-0.062 c 2.238,3.668 5.16,6.964 7.524,6.964 C 1.337,4.042 0.622,1.586 0,0"
             style="fill:#000000;fill-opacity:1;fill-rule:nonzero;stroke:none"
             id="path5364"
             inkscape:connector-curvature="0" /></g><g
           id="g5366"
           transform="translate(98.7393,952.8448)"><path
             d="m 0,0 c -1.212,-1.306 -1.927,-2.736 -2.3,-3.637 2.051,0.621 3.015,1.212 4.166,2.3 0.963,0.902 1.212,1.834 1.212,2.114 0,0.311 -0.155,0.715 -0.715,0.715 C 1.927,1.492 1.119,1.213 0,0 m 4.944,0.591 c 0,-2.363 -3.078,-3.917 -7.556,-5.161 -0.217,-0.529 -0.435,-1.523 -0.435,-2.767 0,-1.057 0.653,-1.772 1.493,-1.772 1.119,0 1.896,0.622 3.264,1.803 0.28,0 0.466,-0.249 0.404,-0.529 -1.896,-2.331 -3.668,-2.829 -4.974,-2.829 -1.866,0 -2.518,1.741 -2.518,3.264 0,1.959 1.243,5.752 4.632,8.364 1.617,1.243 2.829,1.492 3.731,1.492 1.243,0 1.959,-1.057 1.959,-1.865"
             style="fill:#000000;fill-opacity:1;fill-rule:nonzero;stroke:none"
             id="path5368"
             inkscape:connector-curvature="0" /></g><g
           id="g5370"
           transform="translate(110.7397,952.8448)"><path
             d="m 0,0 c -1.213,-1.306 -1.927,-2.736 -2.3,-3.637 2.051,0.621 3.015,1.212 4.165,2.3 0.964,0.902 1.213,1.834 1.213,2.114 0,0.311 -0.156,0.715 -0.715,0.715 C 1.927,1.492 1.119,1.213 0,0 m 4.943,0.591 c 0,-2.363 -3.078,-3.917 -7.555,-5.161 -0.217,-0.529 -0.435,-1.523 -0.435,-2.767 0,-1.057 0.653,-1.772 1.493,-1.772 1.119,0 1.896,0.622 3.264,1.803 0.28,0 0.466,-0.249 0.404,-0.529 -1.896,-2.331 -3.668,-2.829 -4.974,-2.829 -1.866,0 -2.518,1.741 -2.518,3.264 0,1.959 1.243,5.752 4.632,8.364 1.616,1.243 2.829,1.492 3.731,1.492 1.243,0 1.958,-1.057 1.958,-1.865"
             style="fill:#000000;fill-opacity:1;fill-rule:nonzero;stroke:none"
             id="path5372"
             inkscape:connector-curvature="0" /></g><g
           id="g5374"
           transform="translate(121.4962,948.5854)"><path
             d="M 0,0 0.093,-0.062 C 2.301,3.296 5.379,6.715 7.71,6.715 8.923,6.715 9.451,6.063 9.451,5.037 9.451,4.539 9.203,3.575 8.954,2.86 8.394,1.306 6.156,-3.762 6.062,-4.011 c -0.123,-0.31 -0.154,-0.59 0.063,-0.59 0.528,0 2.021,1.026 2.922,2.114 0.435,0.062 0.498,-0.186 0.498,-0.435 -1.182,-1.99 -3.637,-3.482 -5.347,-3.482 -0.28,0 -0.747,0.404 -0.747,0.777 0,0.28 0.093,0.497 0.747,2.052 0.652,1.523 1.803,4.57 2.517,6.124 0.25,0.56 0.653,1.648 0.653,2.27 0,0.373 -0.031,0.746 -0.497,0.746 -0.746,0 -2.58,-1.554 -4.29,-3.699 -1.648,-2.052 -2.923,-4.478 -4.757,-7.897 -0.155,-0.28 -0.28,-0.373 -0.559,-0.373 -0.343,0 -1.182,0.093 -0.903,0.808 0.156,0.404 3.452,9.358 3.607,9.793 0.155,0.404 0.155,0.715 -0.093,0.715 -0.715,0 -1.804,-0.653 -2.829,-1.554 -0.249,0 -0.404,0.217 -0.373,0.466 1.181,1.617 3.077,2.891 4.632,2.891 0.746,0 1.088,-0.559 0.808,-1.274 L 0,0 z"
             style="fill:#000000;fill-opacity:1;fill-rule:nonzero;stroke:none"
             id="path5376"
             inkscape:connector-curvature="0" /></g><g
           id="g5378"
           transform="translate(139.9009,953.3733)"><path
             d="m 0,0 -2.798,-8.177 c -0.186,-0.59 -0.031,-0.777 0.217,-0.777 0.467,0 2.519,1.617 3.545,2.798 0.311,0 0.498,-0.186 0.435,-0.559 -1.741,-2.581 -4.663,-4.477 -5.969,-4.477 -0.435,0 -0.839,0.466 -0.839,0.839 0,0.404 0.124,0.84 0.435,1.772 L -2.052,0 -4.477,0 c -0.062,0.311 0.032,0.746 0.342,0.87 l 2.488,0.436 1.74,3.078 C 0.405,4.57 1.026,4.508 1.275,4.197 l -0.901,-3.046 3.388,0 C 3.98,0.839 3.793,0.218 3.389,0 L 0,0 z"
             style="fill:#000000;fill-opacity:1;fill-rule:nonzero;stroke:none"
             id="path5380"
             inkscape:connector-curvature="0" /></g><g
           id="g5382"
           transform="translate(149.6318,952.8448)"><path
             d="m 0,0 c -1.212,-1.306 -1.928,-2.736 -2.3,-3.637 2.051,0.621 3.015,1.212 4.165,2.3 0.964,0.902 1.213,1.834 1.213,2.114 0,0.311 -0.156,0.715 -0.715,0.715 C 1.928,1.492 1.12,1.213 0,0 m 4.943,0.591 c 0,-2.363 -3.078,-3.917 -7.554,-5.161 -0.218,-0.529 -0.436,-1.523 -0.436,-2.767 0,-1.057 0.654,-1.772 1.493,-1.772 1.119,0 1.897,0.622 3.264,1.803 0.28,0 0.467,-0.249 0.405,-0.529 -1.898,-2.331 -3.669,-2.829 -4.975,-2.829 -1.866,0 -2.519,1.741 -2.519,3.264 0,1.959 1.244,5.752 4.633,8.364 1.617,1.243 2.83,1.492 3.73,1.492 1.245,0 1.959,-1.057 1.959,-1.865"
             style="fill:#000000;fill-opacity:1;fill-rule:nonzero;stroke:none"
             id="path5384"
             inkscape:connector-curvature="0" /></g><g
           id="g5386"
           transform="translate(49.9148,947.7617)"><path
             d="M 0,0 C 0.715,2.269 0.746,2.736 -1.119,2.953 L -2.332,3.109 C -2.549,3.295 -2.518,3.762 -2.27,3.886 -0.902,3.824 0.155,3.793 1.461,3.793 2.798,3.793 4.259,3.824 5.005,3.886 5.223,3.762 5.254,3.264 4.974,3.109 L 4.446,2.953 C 3.264,2.642 3.109,2.487 2.363,0 L 1.399,-3.078 c -0.125,-0.404 -0.062,-0.746 0.248,-0.933 0.032,-0.124 0,-0.311 -0.124,-0.435 -2.145,-0.746 -4.881,-1.399 -6.529,-1.399 -5.503,0 -8.767,3.016 -8.767,8.083 0,3.016 1.275,6.747 4.477,9.545 2.985,2.612 6.498,3.886 10.819,3.886 2.643,0 4.602,-0.684 5.316,-0.995 C 6.311,13.555 5.689,11.752 5.378,10.539 5.254,10.291 4.694,10.322 4.601,10.57 c 0.56,2.86 -0.435,4.135 -3.451,4.135 -3.668,0 -6.094,-1.399 -8.145,-3.326 -2.239,-2.083 -4.042,-6.249 -4.042,-9.794 0,-4.943 3.047,-6.466 6.156,-6.466 2.176,0 3.419,0.31 4.072,2.332 L 0,0 z"
             style="fill:#000000;fill-opacity:1;fill-rule:nonzero;stroke:none"
             id="path5388"
             inkscape:connector-curvature="0" /></g><g
           id="g5390"
           transform="translate(200.2303,948.2105)"><path
             d="m 0,0 c 0.623,0 0.713,0.04 0.534,0.527 l -0.935,2.429 c -0.378,1.073 -0.512,1.457 -0.623,1.599 l -0.046,0 C -1.158,4.413 -1.337,3.907 -1.736,2.956 L -2.672,0.587 C -2.918,0 -2.851,0 -2.316,0 L 0,0 z m -2.672,-0.911 c -0.579,0 -0.557,0 -0.757,-0.547 l -0.914,-2.429 c -0.446,-1.195 -0.356,-1.255 0.468,-1.356 l 0.646,-0.102 c 0.156,-0.141 0.133,-0.506 -0.045,-0.587 -0.712,0.041 -1.448,0.041 -2.36,0.061 -0.736,0 -1.425,-0.02 -2.205,-0.061 -0.156,0.101 -0.178,0.405 -0.022,0.587 l 0.668,0.102 c 0.646,0.08 0.89,0.263 1.225,0.931 0.267,0.526 0.623,1.376 1.091,2.47 l 3.051,7.207 c 0.29,0.648 0.489,1.134 0.423,1.478 0.779,0.141 1.515,0.972 1.559,0.972 0.178,0 0.289,-0.061 0.378,-0.162 C 0.891,6.742 1.18,5.79 1.536,4.879 l 3.207,-8.483 c 0.513,-1.356 0.624,-1.498 1.76,-1.68 l 0.333,-0.061 c 0.179,-0.141 0.179,-0.486 0.023,-0.587 -0.913,0.041 -1.737,0.061 -2.895,0.061 -0.957,0 -1.938,-0.041 -2.717,-0.061 -0.178,0.101 -0.2,0.466 -0.067,0.587 l 0.49,0.061 c 0.802,0.081 0.869,0.202 0.579,1.073 L 1.203,-1.458 C 0.98,-0.911 0.914,-0.911 0.289,-0.911 l -2.961,0 z"
             style="fill:#000000;fill-opacity:1;fill-rule:nonzero;stroke:none"
             id="path5392"
             inkscape:connector-curvature="0" /></g><g
           id="g5394"
           transform="translate(214.995,954.0007)"><path
             d="m 0,0 c 0,0.85 -0.022,0.891 -0.601,0.891 l -1.248,0 c -2.047,0 -2.65,-0.223 -3.473,-1.863 -0.156,-0.121 -0.624,-0.061 -0.713,0.142 0.379,1.093 0.713,2.348 0.869,3.057 0.045,0.061 0.133,0.081 0.245,0.081 0.089,0 0.178,-0.02 0.222,-0.081 0.112,-0.506 0.423,-0.526 1.938,-0.526 l 9.086,0 c 1.091,0 1.425,0.06 1.693,0.526 0.088,0.04 0.177,0.081 0.266,0.081 0.134,0 0.245,-0.041 0.29,-0.101 C 8.351,1.377 8.173,-0.364 8.24,-1.012 8.128,-1.174 7.75,-1.215 7.55,-1.073 7.26,0.506 6.836,0.891 4.454,0.891 l -1.27,0 C 2.606,0.891 2.583,0.85 2.583,0 l 0,-8.746 c 0,-2.146 0.201,-2.207 1.247,-2.308 l 0.802,-0.081 c 0.156,-0.142 0.134,-0.506 -0.044,-0.587 -1.292,0.041 -2.294,0.061 -3.274,0.061 -0.98,0 -2.026,-0.02 -3.452,-0.061 -0.178,0.081 -0.2,0.486 -0.044,0.587 l 0.935,0.101 C -0.201,-10.953 0,-10.892 0,-8.746 L 0,0 z"
             style="fill:#000000;fill-opacity:1;fill-rule:nonzero;stroke:none"
             id="path5396"
             inkscape:connector-curvature="0" /></g><g
           id="g5398"
           transform="translate(228.6908,952.7861)"><path
             d="m 0,0 c 0,2.146 -0.2,2.207 -1.247,2.348 l -0.356,0.041 c -0.156,0.142 -0.134,0.506 0.044,0.587 0.846,-0.04 1.894,-0.061 2.873,-0.061 l 4.254,0 c 1.424,0 2.716,0.021 3.006,0.061 C 8.664,2.632 8.797,1.033 8.93,0.162 8.841,0 8.396,-0.04 8.217,0.081 7.861,1.255 7.528,1.761 6.814,1.923 6.303,2.065 5.634,2.106 5.033,2.106 l -1.492,0 C 2.584,2.106 2.584,2.065 2.584,0.911 l 0,-3.421 c 0,-0.527 0.021,-0.547 0.534,-0.547 l 1.068,0 c 1.938,0 2.317,0.02 2.473,0.891 l 0.155,0.688 c 0.178,0.142 0.601,0.142 0.713,-0.02 -0.022,-0.547 -0.066,-1.276 -0.066,-2.025 0,-0.769 0.044,-1.478 0.067,-2.126 C 7.415,-5.79 6.992,-5.79 6.814,-5.669 l -0.155,0.81 c -0.156,0.85 -0.535,0.891 -2.473,0.891 l -1.068,0 c -0.513,0 -0.534,-0.041 -0.534,-0.547 l 0,-2.571 c 0,-1.033 0.044,-1.761 0.377,-2.106 0.268,-0.283 0.647,-0.445 2.518,-0.445 2.828,-0.04 3.318,0.547 4.097,2.186 0.2,0.142 0.579,0.081 0.713,-0.121 -0.134,-0.85 -0.624,-2.389 -0.936,-2.935 -0.98,0.04 -2.895,0.06 -5.5,0.06 l -2.539,0 c -0.979,0 -2.338,-0.02 -3.34,-0.06 -0.179,0.081 -0.201,0.445 -0.045,0.586 l 0.824,0.082 C -0.2,-9.738 0,-9.677 0,-7.531 L 0,0 z"
             style="fill:#000000;fill-opacity:1;fill-rule:nonzero;stroke:none"
             id="path5400"
             inkscape:connector-curvature="0" /></g><g
           id="g5402"
           transform="translate(247.3082,949.749)"><path
             d="m 0,0 c 0,-0.648 0,-0.688 1.068,-0.688 2.183,0 3.185,0.972 3.185,2.895 0,1.599 -1.135,2.996 -3.073,2.996 C 0.022,5.203 0,5.143 0,4.211 L 0,0 z m -2.583,2.915 c 0,1.944 -0.023,2.187 -1.069,2.288 l -0.58,0.061 C -4.387,5.406 -4.387,5.73 -4.21,5.831 -2.806,5.952 -0.914,6.013 0.913,6.013 2.65,6.013 4.164,5.81 5.145,5.325 6.28,4.778 7.104,3.827 7.104,2.369 7.104,0.506 5.523,-0.425 4.432,-0.83 4.298,-0.891 4.343,-1.052 4.432,-1.174 6.213,-3.907 7.327,-5.628 8.373,-6.417 8.997,-6.904 9.642,-7.025 9.91,-7.045 10.022,-7.126 10.022,-7.349 9.955,-7.45 9.687,-7.511 9.264,-7.571 8.484,-7.571 c -2.137,0 -3.296,0.789 -4.654,2.672 -0.601,0.85 -1.225,1.963 -1.759,2.753 -0.402,0.607 -0.645,0.688 -1.38,0.688 C 0.022,-1.458 0,-1.478 0,-1.903 L 0,-4.494 C 0,-6.64 0.201,-6.701 1.247,-6.822 L 1.736,-6.883 C 1.893,-7.025 1.87,-7.389 1.693,-7.47 c -0.981,0.04 -1.983,0.06 -2.963,0.06 -0.979,0 -1.981,-0.02 -3.006,-0.06 -0.178,0.081 -0.245,0.445 -0.044,0.587 l 0.49,0.061 c 1.046,0.121 1.247,0.182 1.247,2.328 l 0,7.409 z"
             style="fill:#000000;fill-opacity:1;fill-rule:nonzero;stroke:none"
             id="path5404"
             inkscape:connector-curvature="0" /></g><g
           id="g5406"
           transform="translate(264.589,945.6797)"><path
             d="m 0,0 c 0,-1.012 0.045,-1.741 0.379,-2.085 0.267,-0.283 0.624,-0.446 2.405,-0.446 2.472,0 2.828,0.102 3.852,2.187 0.223,0.101 0.58,0.04 0.691,-0.121 -0.178,-0.851 -0.668,-2.39 -0.936,-2.936 -0.934,0.04 -2.85,0.061 -5.344,0.061 l -2.317,0 c -1.135,0 -2.248,-0.021 -3.184,-0.061 -0.178,0.081 -0.245,0.486 -0.044,0.587 l 0.668,0.101 c 1.047,0.122 1.247,0.182 1.247,2.288 l 0,7.531 c 0,2.106 -0.2,2.167 -1.247,2.308 l -0.624,0.081 c -0.155,0.102 -0.155,0.506 0.045,0.587 1.113,-0.04 2.115,-0.06 3.139,-0.06 0.981,0 1.982,0.02 2.963,0.06 0.2,-0.081 0.223,-0.485 0.044,-0.587 L 1.247,9.414 C 0.201,9.273 0,9.212 0,7.106 L 0,0 z"
             style="fill:#000000;fill-opacity:1;fill-rule:nonzero;stroke:none"
             id="path5408"
             inkscape:connector-curvature="0" /></g><g
           id="g5410"
           transform="translate(281.6262,948.2105)"><path
             d="M 0,0 C 0.623,0 0.712,0.04 0.534,0.527 L -0.401,2.956 C -0.78,4.029 -0.914,4.413 -1.025,4.555 l -0.045,0 C -1.158,4.413 -1.337,3.907 -1.738,2.956 L -2.673,0.587 C -2.918,0 -2.851,0 -2.317,0 L 0,0 z m -2.673,-0.911 c -0.578,0 -0.557,0 -0.757,-0.547 l -0.913,-2.429 c -0.446,-1.195 -0.356,-1.255 0.467,-1.356 l 0.646,-0.102 c 0.156,-0.141 0.134,-0.506 -0.044,-0.587 -0.713,0.041 -1.448,0.041 -2.361,0.061 -0.735,0 -1.425,-0.02 -2.204,-0.061 -0.156,0.101 -0.179,0.405 -0.023,0.587 l 0.668,0.102 c 0.646,0.08 0.891,0.263 1.225,0.931 0.267,0.526 0.624,1.376 1.092,2.47 l 3.051,7.207 c 0.289,0.648 0.489,1.134 0.423,1.478 0.779,0.141 1.514,0.972 1.558,0.972 0.179,0 0.289,-0.061 0.379,-0.162 C 0.89,6.742 1.18,5.79 1.536,4.879 l 3.207,-8.483 c 0.512,-1.356 0.624,-1.498 1.76,-1.68 l 0.333,-0.061 c 0.178,-0.141 0.178,-0.486 0.023,-0.587 -0.914,0.041 -1.738,0.061 -2.896,0.061 -0.957,0 -1.937,-0.041 -2.716,-0.061 -0.179,0.101 -0.201,0.466 -0.067,0.587 l 0.489,0.061 c 0.803,0.081 0.869,0.202 0.58,1.073 l -1.047,2.753 c -0.223,0.547 -0.29,0.547 -0.913,0.547 l -2.962,0 z"
             style="fill:#000000;fill-opacity:1;fill-rule:nonzero;stroke:none"
             id="path5412"
             inkscape:connector-curvature="0" /></g><g
           id="g5414"
           transform="translate(305.4097,945.7809)"><path
             d="m 0,0 c 0,-0.607 0,-3.097 0.067,-3.563 -0.179,-0.223 -0.49,-0.304 -0.758,-0.283 -0.356,0.425 -1.002,1.113 -2.605,2.773 l -5.211,5.405 c -1.448,1.478 -2.161,2.248 -2.539,2.551 -0.067,0 -0.067,-0.222 -0.067,-1.295 l 0,-3.948 c 0,-1.518 0.023,-3.381 0.402,-3.988 0.2,-0.304 0.578,-0.425 1.135,-0.506 l 0.49,-0.061 c 0.2,-0.142 0.178,-0.527 -0.044,-0.587 -0.825,0.04 -1.693,0.06 -2.539,0.06 -0.936,0 -1.537,-0.02 -2.317,-0.06 -0.177,0.101 -0.222,0.445 -0.044,0.587 l 0.49,0.101 c 0.423,0.061 0.824,0.142 0.979,0.466 0.291,0.627 0.291,2.389 0.291,3.988 l 0,4.798 c 0,1.58 0.021,1.903 -0.735,2.49 -0.246,0.183 -0.869,0.345 -1.181,0.405 l -0.334,0.061 c -0.156,0.122 -0.133,0.526 0.09,0.587 0.845,-0.081 2.07,-0.061 2.627,-0.061 0.468,0 1.002,0.021 1.536,0.061 0.379,-0.87 2.807,-3.421 3.586,-4.191 l 2.227,-2.186 c 0.935,-0.931 3.007,-3.077 3.229,-3.199 0.067,0.061 0.067,0.162 0.067,0.486 l 0,3.948 c 0,1.518 -0.022,3.381 -0.423,3.988 -0.2,0.304 -0.558,0.425 -1.114,0.506 l -0.512,0.061 c -0.2,0.142 -0.178,0.526 0.044,0.587 0.869,-0.04 1.693,-0.061 2.562,-0.061 0.957,0 1.536,0.021 2.338,0.061 C 1.915,9.88 1.959,9.536 1.781,9.394 L 1.27,9.293 C 0.846,9.232 0.468,9.151 0.312,8.827 0,8.199 0,6.438 0,4.839 L 0,0 z"
             style="fill:#000000;fill-opacity:1;fill-rule:nonzero;stroke:none"
             id="path5416"
             inkscape:connector-curvature="0" /></g><g
           id="g5418"
           transform="translate(315.342,946.0443)"><path
             d="m 0,0 c 0,-1.964 0.156,-3.016 2.517,-3.016 3.963,0 5.745,2.55 5.745,5.972 0,4.008 -2.561,5.952 -6.28,5.952 C 1.047,8.908 0.335,8.746 0.178,8.625 0.022,8.503 0,8.078 0,7.126 L 0,0 z m -2.583,6.62 c 0,1.944 -0.022,2.187 -1.069,2.308 l -0.467,0.041 c -0.157,0.101 -0.157,0.465 0.021,0.566 1.604,0.122 3.385,0.183 5.568,0.183 2.116,0 3.63,-0.162 5.256,-0.689 2.672,-0.89 4.564,-3.036 4.564,-6.053 0,-2.247 -1.225,-4.555 -3.985,-5.831 -1.582,-0.729 -3.497,-0.971 -5.523,-0.971 -1.359,0 -2.406,0.121 -3.23,0.121 -0.846,0 -1.848,-0.02 -2.828,-0.061 -0.178,0.081 -0.199,0.446 -0.044,0.587 l 0.49,0.061 c 1.047,0.122 1.247,0.182 1.247,2.328 l 0,7.41 z"
             style="fill:#000000;fill-opacity:1;fill-rule:nonzero;stroke:none"
             id="path5420"
             inkscape:connector-curvature="0" /></g><g
           id="g5422"
           transform="translate(197.8933,968.8152)"><path
             d="m 0,0 c -2.078,-0.369 -2.755,-1.273 -4.426,-4.639 -3.433,-6.938 -6.367,-12.563 -8.897,-18.31 -0.678,-1.519 -1.039,-2.628 -1.445,-3.408 -0.135,-0.082 -0.452,-0.164 -0.768,-0.164 -0.316,0 -0.631,0.041 -0.813,0.164 -0.948,2.546 -3.793,7.841 -5.599,11.372 -2.033,-3.735 -4.019,-7.513 -5.736,-11.372 -0.135,-0.082 -0.452,-0.164 -0.768,-0.164 -0.315,0 -0.631,0.041 -0.812,0.164 -0.723,1.847 -1.852,4.065 -3.162,6.569 l -8.716,16.791 c -0.947,1.847 -1.399,2.463 -3.251,2.915 l -1.264,0.287 c -0.316,0.247 -0.271,0.945 0.135,1.15 1.626,-0.082 3.523,-0.123 5.464,-0.123 1.626,0 3.343,0.041 5.511,0.123 0.36,-0.205 0.406,-0.903 0.135,-1.15 l -1.129,-0.246 c -0.587,-0.123 -1.039,-0.287 -1.039,-0.657 0,-0.369 0.316,-1.191 1.084,-2.75 l 5.374,-10.593 c 1.536,-3.12 2.71,-5.254 3.161,-5.911 0.948,1.642 1.897,3.572 3.026,5.706 0.271,0.616 0.632,1.314 0.632,1.56 0,0.206 -0.181,0.698 -0.406,1.232 l -4.743,9.114 c -0.902,1.642 -1.399,2.053 -2.619,2.299 l -1.309,0.246 c -0.316,0.288 -0.272,0.945 0.135,1.15 1.851,-0.082 3.342,-0.123 4.877,-0.123 1.807,0 3.569,0.041 5.374,0.123 0.362,-0.165 0.407,-0.903 0.091,-1.15 l -1.219,-0.246 c -0.497,-0.123 -0.768,-0.287 -0.768,-0.575 0,-0.246 0.091,-0.698 0.406,-1.355 0.993,-2.052 2.033,-4.146 3.071,-5.994 0.768,1.396 1.491,2.915 2.213,4.434 0.678,1.437 0.993,2.464 0.993,2.833 0,0.288 -0.271,0.493 -0.903,0.616 l -1.265,0.287 c -0.315,0.329 -0.225,0.985 0.136,1.15 1.22,-0.082 2.484,-0.123 4.2,-0.123 1.581,0 2.665,0.041 4.109,0.123 0.452,-0.205 0.452,-0.944 0.091,-1.191 l -1.129,-0.205 c -1.67,-0.328 -2.123,-0.78 -3.568,-3.202 -0.993,-1.643 -2.122,-3.859 -3.116,-5.707 -0.226,-0.451 -0.451,-1.026 -0.451,-1.149 0,-0.123 0.135,-0.493 0.361,-0.986 l 1.942,-3.817 c 0.948,-1.848 2.123,-4.352 2.529,-5.05 2.303,4.885 4.742,10.304 7.135,15.518 0.768,1.684 1.4,3.284 1.4,3.818 0,0.288 -0.813,0.452 -1.535,0.616 l -0.768,0.205 c -0.406,0.288 -0.406,0.945 0.045,1.15 1.671,-0.082 3.071,-0.123 4.606,-0.123 1.535,0 2.936,0.041 4.336,0.123 C 1.309,1.15 1.399,0.575 1.083,0.205 L 0,0 z"
             style="fill:#0065ab;fill-opacity:1;fill-rule:nonzero;stroke:none"
             id="path5424"
             inkscape:connector-curvature="0" /></g><g
           id="g5426"
           transform="translate(153.4868,905.1014)"><path
             d="m 0,0 c 2.077,0.37 2.754,1.273 4.425,4.64 3.432,6.937 6.368,12.562 8.896,18.31 0.678,1.518 1.039,2.627 1.446,3.407 0.136,0.082 0.452,0.164 0.768,0.164 0.316,0 0.632,-0.04 0.812,-0.164 0.949,-2.545 3.794,-7.841 5.6,-11.372 2.032,3.736 4.02,7.513 5.736,11.372 0.135,0.082 0.451,0.164 0.767,0.164 0.316,0 0.633,-0.04 0.813,-0.164 0.723,-1.847 1.851,-4.064 3.162,-6.568 L 41.14,2.997 c 0.948,-1.847 1.4,-2.463 3.251,-2.914 l 1.265,-0.288 c 0.316,-0.246 0.271,-0.944 -0.135,-1.149 -1.626,0.081 -3.523,0.123 -5.464,0.123 -1.626,0 -3.342,-0.042 -5.51,-0.123 -0.361,0.205 -0.407,0.903 -0.135,1.149 l 1.129,0.246 c 0.587,0.124 1.037,0.288 1.037,0.658 0,0.369 -0.315,1.19 -1.083,2.75 l -5.374,10.592 c -1.535,3.12 -2.709,5.255 -3.161,5.912 -0.948,-1.643 -1.897,-3.572 -3.026,-5.707 -0.27,-0.616 -0.632,-1.314 -0.632,-1.559 0,-0.206 0.18,-0.699 0.407,-1.233 L 28.45,2.341 c 0.903,-1.642 1.4,-2.053 2.619,-2.3 l 1.31,-0.246 c 0.317,-0.287 0.271,-0.944 -0.135,-1.149 -1.852,0.081 -3.341,0.123 -4.877,0.123 -1.807,0 -3.568,-0.042 -5.375,-0.123 -0.361,0.164 -0.406,0.903 -0.09,1.149 l 1.22,0.246 c 0.497,0.124 0.767,0.288 0.767,0.575 0,0.247 -0.09,0.698 -0.407,1.355 -0.993,2.053 -2.031,4.147 -3.07,5.994 C 19.644,6.569 18.922,5.05 18.199,3.531 17.521,2.094 17.205,1.068 17.205,0.699 c 0,-0.288 0.272,-0.494 0.904,-0.616 l 1.264,-0.288 c 0.316,-0.329 0.226,-0.985 -0.135,-1.149 -1.22,0.081 -2.484,0.123 -4.2,0.123 -1.58,0 -2.664,-0.042 -4.11,-0.123 -0.452,0.205 -0.452,0.944 -0.09,1.19 l 1.129,0.205 c 1.671,0.329 2.122,0.78 3.568,3.203 0.993,1.642 2.123,3.858 3.116,5.707 0.225,0.451 0.451,1.026 0.451,1.148 0,0.124 -0.135,0.494 -0.361,0.986 l -1.942,3.818 c -0.948,1.848 -2.123,4.352 -2.529,5.05 C 11.967,15.067 9.529,9.648 7.135,4.434 6.367,2.751 5.735,1.15 5.735,0.616 5.735,0.329 6.548,0.165 7.27,0 l 0.768,-0.205 c 0.406,-0.287 0.406,-0.944 -0.045,-1.149 -1.67,0.081 -3.071,0.123 -4.606,0.123 -1.535,0 -2.935,-0.042 -4.336,-0.123 -0.361,0.205 -0.451,0.78 -0.135,1.149 L 0,0 z"
             style="fill:#ffffff;fill-opacity:1;fill-rule:nonzero;stroke:none"
             id="path5428"
             inkscape:connector-curvature="0" /></g></g></g></g></svg>