<?xml version="1.0" encoding="UTF-8"?>
<svg enable-background="new 0 0 1920 255" version="1.1" viewBox="0 0 1920 255" xml:space="preserve" xmlns="http://www.w3.org/2000/svg">
<g id="MOERDIJK" fill="#00442b">
		<path d="m279.3 0.9h-39.8-36.6l-63.2 63.2-31.7-31.5-31.6-31.7h-38-38.4v253.1h24.1 52.3l63.2-63.2 63.2 63.2h76.4l0.1-253.1zm-108 158.2-31.6-31.6-31.7 31.6-63.2 63.2v-190h0.1l-0.1 0.1 31.6 31.6 31.6 31.9 31.6 31.6 31.6-31.6 31.8-31.7 31.6-31.6v189.8l-63.3-63.3z"/>
			<path d="M552.5,22.9H592v208.3h-44.6V92.3l-67,85.3l-66.8-84.7v138.3h-44.7V22.9h40.2l71.3,90.8L552.5,22.9z"/>
			<path d="m658.9 50.4c21.8-21.2 48.6-31.8 80.3-31.8s58.5 10.6 80.3 31.8 32.8 46.8 32.8 76.7-10.9 55.5-32.8 76.8c-21.8 21.3-48.6 31.9-80.3 31.9s-58.5-10.6-80.3-31.9-32.8-46.8-32.8-76.8 11-55.5 32.8-76.7zm32.9 125.3c13 13.2 28.8 19.8 47.4 19.8s34.5-6.6 47.4-19.8c13-13.2 19.5-29.4 19.5-48.6s-6.5-35.4-19.5-48.7c-13-13.2-28.8-19.8-47.4-19.8s-34.5 6.6-47.4 19.8c-13 13.2-19.5 29.4-19.5 48.7s6.5 35.4 19.5 48.6z"/>
			<path d="M1042.8,191.1v40.1H886.5V22.9h153.3v40.2H931.2v41.7h84.7v40.1h-84.7v46.2H1042.8z"/>
			<path d="m1076.8 22.9h92.2c20.6 0 37.7 6.6 51.2 19.8s20.3 29.4 20.3 48.6c0 8.3-1.3 16.1-3.9 23.4s-5.7 13.1-9.2 17.6-7.1 8.3-10.8 11.5-6.8 5.4-9.4 6.5l-3.8 2 44.6 78.9h-47.6l-40.1-72.9h-38.6v72.9h-44.7v-208.3zm111 48.2c-5.4-5.3-12.1-8-20.3-8h-46v55.1h46c8.1 0 14.9-2.6 20.3-7.8s8.1-11.5 8.1-19.1c0-8.1-2.7-14.8-8.1-20.2z"/>
			<path d="m1358 22.9c30.3 0 55.7 10.1 76.3 30.2 20.5 20.1 30.8 44.8 30.8 73.9 0 29.2-10.3 53.8-30.8 73.9s-46 30.2-76.3 30.2h-77.4v-208.2h77.4zm-32.7 40.2v128h32.7c17.2 0 32-6.2 44.2-18.6s18.3-27.5 18.3-45.4-6-33-17.9-45.4-26.8-18.6-44.6-18.6h-32.7z"/>
			<path d="M1499.2,22.9h44.7v208.3h-44.7V22.9z"/>
			<path d="m1691.1 22.9v141.3c0 21.2-6.7 38.4-20.1 51.6s-31 19.8-52.8 19.8c-10.6 0-20.4-2.1-29.6-6.4s-15.7-8.5-19.5-12.6l-6-6.2 26.7-26.9c0.6 0.8 1.5 1.9 2.8 3.3s4.2 3.2 8.6 5.4c4.5 2.2 9.1 3.3 13.8 3.3 9.7 0 17.3-2.8 22.9-8.3s8.4-13.2 8.4-23v-141.3h44.8z"/>
			<path d="m1780.3 113.7 81.8-90.8h52l-77.3 86.3 83.2 122h-52l-61-89.2-26.7 29.6v59.6h-44.7v-208.3h44.7v90.8z"/>
</g>
</svg>